812   00000000000                      CD               HDEPOT2                       0000302253008     000018346004060      000004060004060X X4064060604060                              P P                                        
812   BCD00200000201612290                     A 2000000000003079D20161222101025713                                   2016121432913408                  ST 5641                                                
812   N9 00400000VR 000265438                                                                                                                                                                                                                                                                       
812   N9 00400000VV TYRHPS                                                                                                                                                                                                                                                                          
812   N9 00400000RV 564168203                                                                                                                                                                                                                                                                       
812   N9 00400000DP 27                                                                                                                                                                                                                                                                              
812   N9 00400000FR 0870063482                                                                                                                                                                                                                                                                      
812   FOB00800000CC                                                                                    ZZZDEDESTINATION                                                                                                                                                       
812   SHD009000000000000000000000001CT                                              ZZ UNKNOWN                                           
812   N1 01100000BT FEIT ELECTRIC COMPANY                                                                                                                              
812   N3 01300000ATTN PAT GRANADO                                       4901 GREGG RD                                          
812   N4 01400000PICO RIVERA                   CA90660                                                
812   CDD0220000024D                    2000000000003079                                                                                                                                                                                                                                                                                                                                                   
812   00000000000                      CD               HDEPOT2                       0000302253008     000018345004060      000004060004060X X4064060604060                              P P                                        
812   BCD00200000201612290                     A 2000000001004739D20161208101017600                                   2016112945929756                  ST 5087                                                
812   N9 00400000VR 000265438                                                                                                                                                                                                                                                                       
812   N9 00400000VV TMDWWR                                                                                                                                                                                                                                                                          
812   N9 00400000RV 508716910                                                                                                                                                                                                                                                                       
812   N9 00400000DP 27                                                                                                                                                                                                                                                                              
812   N9 00400000FR ESNL1222016                                                                                                                                                                                                                                                                     
812   FOB00800000CC                                                                                    ZZZDEDESTINATION                                                                                                                                                       
812   SHD009000000000000000000001011CT                                              ZZ UNKNOWN                                           
812   N1 01100000BT FEIT ELECTRIC COMPANY                                                                                                                              
812   N3 01300000ATTN PAT GRANADO                                       4901 GREGG RD                                          
812   N4 01400000PICO RIVERA                   CA90660                                                
812   CDD0220000024D                    2000000000966379                                                                                                                                                                                                                                                                                                                                                   
812   CDD0220000006D                    1000000000003836    00000000020ZZ                UCP200000000000001918INV200000000000001918                                                                                                                                                                                                                                                                        
812   LIN02300000                    SK1001797960                                      VPLEDR4927/M                                                                                                                                                                                                                                                                                                                                                                                                                                                                                                                                                                                                                                                                                                                
812   00000000000                      CD               HDEPOT2                       0000302253008     000018344004060      000004060004060X X4064060604060                              P P                                        
812   BCD00200000201612290                     A 2000000000983216D20161207101016748                                   2016112926905141                  ST 5641                                                
812   N9 00400000VR 000265438                                                                                                                                                                                                                                                                       
812   N9 00400000VV TMDWWP                                                                                                                                                                                                                                                                          
812   N9 00400000RV 564150076                                                                                                                                                                                                                                                                       
812   N9 00400000DP 27                                                                                                                                                                                                                                                                              
812   N9 00400000FR 0870062103                                                                                                                                                                                                                                                                      
812   FOB00800000CC                                                                                    ZZZDEDESTINATION                                                                                                                                                       
812   SHD009000000000000000000001402CT                                              ZZ UNKNOWN                                           
812   N1 01100000BT FEIT ELECTRIC COMPANY                                                                                                                              
812   N3 01300000ATTN PAT GRANADO                                       4901 GREGG RD                                          
812   N4 01400000PICO RIVERA                   CA90660                                                
812   CDD0220000024D                    2000000000952528                                                                                                                                                                                                                                                                                                                                                   
812   CDD0220000006D                    2000000000030688    00000000016ZZ                UCP200000000000001918INV200000000000001918                                                                                                                                                                                                                                                                        
812   LIN02300000                    SK1001797960                                                                                                                                                                                                                                                                                                                                                                                                                                                                                                                                                                                                                                                                                                                                                                  
812   00000000000                      CD               HDEPOT2                       0000302243007     000018343004060      000004060004060X X4064060604060                              P P                                        
812   BCD0020000020161228066445156             O 2000000000000188D        0000000000                                                                    ST 6644                                                
812   N9 00400000VR 000265438                                                                                                                                                                                                                                                                       
812   N9 00400000DP 27                                                                                                                                                                                                                                                                              
812   N9 00400000L1 01                                                                                                                                                                                                                                                                              
812   N9 00400000ZZ 05                                                                                                                                                                                                                                                                              
812   N9 00400000MB 0000000000                                                                                                                                                                                                                                                                      
812   SHD009000000000000000000000000CT                                                                                                   
812   N1 01100000BT FEIT ELECTRIC COMPANY                                                                                                                              
812   N3 01300000ATTN PAT GRANADO                                       4901 GREGG RD                                          
812   N4 01400000PICO RIVERA                   CA90660                                                
812   N1 01100000SN PANORAMA CITY                                                                                                                                      
812   N3 013000007870 E VAN NUYS BLVD                                                                                          
812   N4 01400000PANORAMA CITY                 CA91402                                                
812   CDD02200000RMD                                        00000000001EA                UCP400000000000018754ICL400000000000018754ES 9W DAYLIGHT SPIRAL CFL BULB 2PK                                                                                                                                                                                                                                      
812   LIN02300000                    SK252763                                          VPESL9TM/5K/2/ESM                                                                                                                                                                                                                                                                                                                                                                                                                                                                                                                                                                                                                                                                                                           
812   00000000000                      CD               HDEPOT2                       0000302243007     000018342004060      000004060004060X X4064060604060                              P P                                        
812   BCD0020000020161228049153073             O 0000000000000039D        0000000000                                                                    ST 4915                                                
812   N9 00400000VR 000265438                                                                                                                                                                                                                                                                       
812   N9 00400000DP 27                                                                                                                                                                                                                                                                              
812   N9 00400000L1 14                                                                                                                                                                                                                                                                              
812   N9 00400000ZZ 05                                                                                                                                                                                                                                                                              
812   N9 00400000MB 0000000000                                                                                                                                                                                                                                                                      
812   SHD009000000000000000000000000CT                                                                                                   
812   N1 01100000BT FEIT ELECTRIC COMPANY                                                                                                                              
812   N3 01300000ATTN PAT GRANADO                                       4901 GREGG RD                                          
812   N4 01400000PICO RIVERA                   CA90660                                                
812   N1 01100000SN BELLEVUE (E GREEN BAY)                                                                                                                             
812   N3 013000002595 EATON RD                                                                                                 
812   N4 01400000GREEN BAY                     WI54311                                                
812   CDD02200000RMD                                        00000000001EA                UCP000000000000000039ICL00000000000000003960WATT EQUIVALENT SOFT WHITE (2700K)                                                                                                                                                                                                                                    
812   LIN02300000                    SK1000514568                                      VPBPESL13T/GU24/2                                 PO15577776                                                                                                                                                                                                                                                                                                                                                                                                                                                                                                                                                                                                                                                                
812   00000000000                      CD               HDEPOT2                       0000302243007     000018341004060      000004060004060X X4064060604060                              P P                                        
812   BCD0020000020161228044123277             O 2000000000004192D        0000000000                                                                    ST 4412                                                
812   N9 00400000VR 000265438                                                                                                                                                                                                                                                                       
812   N9 00400000RZ 8859                                                                                                                                                                                                                                                                            
812   N9 00400000MR 000079239                                                                                                                                                                                                                                                                       
812   N9 00400000DP 27                                                                                                                                                                                                                                                                              
812   N9 00400000L1 29                                                                                                                                                                                                                                                                              
812   N9 00400000ZZ 05                                                                                                                                                                                                                                                                              
812   N9 00400000MB 0000000000                                                                                                                                                                                                                                                                      
812   FOB00800000CC                                                                                                                                                                                                                                                           
812   SHD009000000000000000000000000CT                                                                                                   
812   N1 01100000BT FEIT ELECTRIC COMPANY                                                                                                                              
812   N3 01300000ATTN PAT GRANADO                                       4901 GREGG RD                                          
812   N4 01400000PICO RIVERA                   CA90660                                                
812   N1 01100000SN ST GEORGE                                                                                                                                          
812   N3 01300000725 W TELEGRAPH ST                                                                                            
812   N4 01400000WASHINGTON                    UT84780                                                
812   CDD02200000RMD                                        00000000001EA                UCP200000000000004192ICL2000000000000041922' LED HYDROPONIC GROW LIGHT WHT                                                                                                                                                                                                                                        
812   LIN02300000                    SK1001610494                                      VP74303                                                                                                                                                                                                                                                                                                                                                                                                                                                                                                                                                                                                                                                                                                                     
812   00000000000                      CD               HDEPOT2                       0000302243007     000018340004060      000004060004060X X4064060604060                              P P                                        
812   BCD0020000020161228044123276             O 1000000000000265D        0000000000                                                                    ST 4412                                                
812   N9 00400000VR 000265438                                                                                                                                                                                                                                                                       
812   N9 00400000RZ 8859                                                                                                                                                                                                                                                                            
812   N9 00400000MR 000079239                                                                                                                                                                                                                                                                       
812   N9 00400000DP 27                                                                                                                                                                                                                                                                              
812   N9 00400000L1 29                                                                                                                                                                                                                                                                              
812   N9 00400000ZZ 05                                                                                                                                                                                                                                                                              
812   N9 00400000MB 0000000000                                                                                                                                                                                                                                                                      
812   FOB00800000CC                                                                                                                                                                                                                                                           
812   SHD009000000000000000000000000CT                                                                                                   
812   N1 01100000BT FEIT ELECTRIC COMPANY                                                                                                                              
812   N3 01300000ATTN PAT GRANADO                                       4901 GREGG RD                                          
812   N4 01400000PICO RIVERA                   CA90660                                                
812   N1 01100000SN ST GEORGE                                                                                                                                          
812   N3 01300000725 W TELEGRAPH ST                                                                                            
812   N4 01400000WASHINGTON                    UT84780                                                
812   CDD02200000RMD                                        00000000001EA                UCP100000000000000265ICL1000000000000002652' LED FULL SPECTRUM GROW LIGHT WHT                                                                                                                                                                                                                                     
812   LIN02300000                    SK1001610493                                      VP74302                                                                                                                                                                                                                                                                                                                                                                                                                                                                                                                                                                                                                                                                                                                     
812   00000000000                      CD               HDEPOT2                       0000302243007     000018339004060      000004060004060X X4064060604060                              P P                                        
812   BCD0020000020161228044123274             O 2000000000004192D        0000000000                                                                    ST 4412                                                
812   N9 00400000VR 000265438                                                                                                                                                                                                                                                                       
812   N9 00400000RZ 8859                                                                                                                                                                                                                                                                            
812   N9 00400000MR 000079239                                                                                                                                                                                                                                                                       
812   N9 00400000DP 27                                                                                                                                                                                                                                                                              
812   N9 00400000L1 29                                                                                                                                                                                                                                                                              
812   N9 00400000ZZ 05                                                                                                                                                                                                                                                                              
812   N9 00400000MB 0000000000                                                                                                                                                                                                                                                                      
812   FOB00800000CC                                                                                                                                                                                                                                                           
812   SHD009000000000000000000000000CT                                                                                                   
812   N1 01100000BT FEIT ELECTRIC COMPANY                                                                                                                              
812   N3 01300000ATTN PAT GRANADO                                       4901 GREGG RD                                          
812   N4 01400000PICO RIVERA                   CA90660                                                
812   N1 01100000SN ST GEORGE                                                                                                                                          
812   N3 01300000725 W TELEGRAPH ST                                                                                            
812   N4 01400000WASHINGTON                    UT84780                                                
812   CDD02200000RMD                                        00000000001EA                UCP200000000000004192ICL2000000000000041922' LED HYDROPONIC GROW LIGHT WHT                                                                                                                                                                                                                                        
812   LIN02300000                    SK1001610494                                      VP74303                                                                                                                                                                                                                                                                                                                                                                                                                                                                                                                                                                                                                                                                                                                     
812   00000000000                      CD               HDEPOT2                       0000302243007     000018338004060      000004060004060X X4064060604060                              P P                                        
812   BCD0020000020161228044123273             O 1000000000000265D        0000000000                                                                    ST 4412                                                
812   N9 00400000VR 000265438                                                                                                                                                                                                                                                                       
812   N9 00400000RZ 8859                                                                                                                                                                                                                                                                            
812   N9 00400000MR 000079239                                                                                                                                                                                                                                                                       
812   N9 00400000DP 27                                                                                                                                                                                                                                                                              
812   N9 00400000L1 29                                                                                                                                                                                                                                                                              
812   N9 00400000ZZ 05                                                                                                                                                                                                                                                                              
812   N9 00400000MB 0000000000                                                                                                                                                                                                                                                                      
812   FOB00800000CC                                                                                                                                                                                                                                                           
812   SHD009000000000000000000000000CT                                                                                                   
812   N1 01100000BT FEIT ELECTRIC COMPANY                                                                                                                              
812   N3 01300000ATTN PAT GRANADO                                       4901 GREGG RD                                          
812   N4 01400000PICO RIVERA                   CA90660                                                
812   N1 01100000SN ST GEORGE                                                                                                                                          
812   N3 01300000725 W TELEGRAPH ST                                                                                            
812   N4 01400000WASHINGTON                    UT84780                                                
812   CDD02200000RMD                                        00000000001EA                UCP100000000000000265ICL1000000000000002652' LED FULL SPECTRUM GROW LIGHT WHT                                                                                                                                                                                                                                     
812   LIN02300000                    SK1001610493                                      VP74302                                                                                                                                                                                                                                                                                                                                                                                                                                                                                                                                                                                                                                                                                                                     
812   00000000000                      CD               HDEPOT2                       0000302243007     000018337004060      000004060004060X X4064060604060                              P P                                        
812   BCD0020000020161228017028381             O 2000000000005997D        0000000000                                                                    ST 1702                                                
812   N9 00400000VR 000265438                                                                                                                                                                                                                                                                       
812   N9 00400000DP 27                                                                                                                                                                                                                                                                              
812   N9 00400000L1 01                                                                                                                                                                                                                                                                              
812   N9 00400000ZZ 05                                                                                                                                                                                                                                                                              
812   N9 00400000MB 0000000000                                                                                                                                                                                                                                                                      
812   SHD009000000000000000000000000CT                                                                                                   
812   N1 01100000BT FEIT ELECTRIC COMPANY                                                                                                                              
812   N3 01300000ATTN PAT GRANADO                                       4901 GREGG RD                                          
812   N4 01400000PICO RIVERA                   CA90660                                                
812   N1 01100000SN PEARL CITY                                                                                                                                         
812   N3 013000001021 KAMEHAMEHA HIGHWAY                                                                                       
812   N4 01400000PEARL CITY                    HI96782                                                
812   CDD02200000RMD                                        00000000001EA                UCP400000000000599706ICL400000000000599706CE 1X4 LED EDGE-LIT, WHITE TRIM                                                                                                                                                                                                                                         
812   LIN02300000                    SK1001375544                                      VP74031/HD                                                                                                                                                                                                                                                                                                                                                                                                                                                                                                                                                                                                                                                                                                                  
812   00000000000                      CD               HDEPOT2                       0000302243007     000018336004060      000004060004060X X4064060604060                              P P                                        
812   BCD0020000020161228017010287             O 2000000000005997D        0000000000                                                                    ST 1701                                                
812   N9 00400000VR 000265438                                                                                                                                                                                                                                                                       
812   N9 00400000DP 27                                                                                                                                                                                                                                                                              
812   N9 00400000L1 01                                                                                                                                                                                                                                                                              
812   N9 00400000ZZ 05                                                                                                                                                                                                                                                                              
812   N9 00400000MB 0000000000                                                                                                                                                                                                                                                                      
812   SHD009000000000000000000000000CT                                                                                                   
812   N1 01100000BT FEIT ELECTRIC COMPANY                                                                                                                              
812   N3 01300000ATTN PAT GRANADO                                       4901 GREGG RD                                          
812   N4 01400000PICO RIVERA                   CA90660                                                
812   N1 01100000SN HONOLULU                                                                                                                                           
812   N3 01300000421 ALAKAWA ST                                                                                                
812   N4 01400000HONOLULU                      HI96817                                                
812   CDD02200000RMD                                        00000000001EA                UCP400000000000599706ICL400000000000599706CE 1X4 LED EDGE-LIT, WHITE TRIM                                                                                                                                                                                                                                         
812   LIN02300000                    SK1001375544                                      VP74031/HD                                                                                                                                                                                                                                                                                                                                                                                                                                                                                                                                                                                                                                                                                                                  
