820   00000000000                      RA               HD820                         000511251500539   0540     004060      000004060004060X X4064060604060                              P P                                        
820   BPR00200000I 1000000000000000953CACHPBC                                                                                                                                                                                                 
820   TRN004000001 2001215184                                                                                                    
820   CUR00500000BY USD                                                                                                                   
820   REF00600000ZZ 2001215184                                                                                                                                                                                                                                                                                       
820   DTM0070000002020171006                                                
820   N1 00800000PE FEIT ELECTRIC CO                                                                                                                                   
820   REF01200000VR 71206105                                                                                                                                                                                                                                                                                         
820   N1 00800000PR HOME DEPOT PUERTO RICO, INC.                                                                                                                       
820   ENT016000000000001                                                                                                                                                                                                                               
820   RMR04600000IV 101144253                                           100000000000000095320000000000000096262000000000000000096PT0000000000000000000
820   REF04800000PO 9012168928                                                                                                                                                                                                                                                                                       
820   DTM0490000099920170808                                                
820   00000000000                      RA               HD820                         000511250500538   0539     004060      000004060004060X X4064060604060                              P P                                        
820   BPR00200000I 2000000000000392585CACHPBC                                                                                                                                                                                                 
820   TRN004000001 2004460096                                                                                                    
820   CUR00500000BY USD                                                                                                                   
820   REF00600000ZZ 2004460096                                                                                                                                                                                                                                                                                       
820   DTM0070000002020171006                                                
820   N1 00800000PE FEIT ELECTRIC CO                                                                                                                                   
820   REF01200000VR 71206105                                                                                                                                                                                                                                                                                         
820   N1 00800000PR HOME DEPOT U.S.A., INC.                                                                                                                            
820   ENT016000000000001                                                                                                                                                                                                                               
820   RMR04600000IV 101134395                                           200000000000000852320000000000000086092000000000000000086PT0000000000000000000
820   REF04800000PO 9012073505                                                                                                                                                                                                                                                                                       
820   DTM0490000099920170717                                                
820   RMR04600000IV 101144282                                           200000000000000934420000000000000094382000000000000000094PT0000000000000000000
820   REF04800000PO 9012174398                                                                                                                                                                                                                                                                                       
820   DTM0490000099920170808                                                
820   RMR04600000IV 101144298                                           200000000000000843620000000000000085212000000000000000085PT0000000000000000000
820   REF04800000PO 9012178738                                                                                                                                                                                                                                                                                       
820   DTM0490000099920170808                                                
820   RMR04600000IV 101144301                                           200000000000001220220000000000000123252000000000000000123PT0000000000000000000
820   REF04800000PO 9012177428                                                                                                                                                                                                                                                                                       
820   DTM0490000099920170808                                                
820   RMR04600000IV 101144302                                           200000000000000966210000000000000009762000000000000000098PT0000000000000000000
820   REF04800000PO 9012178162                                                                                                                                                                                                                                                                                       
820   DTM0490000099920170808                                                
820   RMR04600000IV 101144311                                           200000000000000847920000000000000085652000000000000000086PT0000000000000000000
820   REF04800000PO 9012180739                                                                                                                                                                                                                                                                                       
820   DTM0490000099920170808                                                
820   RMR04600000IV 101144313                                           200000000000000996120000000000000100622000000000000000101PT0000000000000000000
820   REF04800000PO 9012180280                                                                                                                                                                                                                                                                                       
820   DTM0490000099920170808                                                
820   RMR04600000IV 101144314                                           200000000000000742620000000000000075012000000000000000075PT0000000000000000000
820   REF04800000PO 9012180287                                                                                                                                                                                                                                                                                       
820   DTM0490000099920170808                                                
820   RMR04600000IV 101144315                                           200000000000001203420000000000000121562000000000000000122PT0000000000000000000
820   REF04800000PO 9012179775                                                                                                                                                                                                                                                                                       
820   DTM0490000099920170808                                                
820   RMR04600000IV 101144316                                           200000000000001151220000000000000116282000000000000000116PT0000000000000000000
820   REF04800000PO 9012179067                                                                                                                                                                                                                                                                                       
820   DTM0490000099920170808                                                
820   RMR04600000IV 101144506                                           200000000000000750720000000000000075832000000000000000076PT0000000000000000000
820   REF04800000PO 9012178846                                                                                                                                                                                                                                                                                       
820   DTM0490000099920170808                                                
820   RMR04600000IV 101144240                                           200000000000000958720000000000000096842000000000000000097PT0000000000000000000
820   REF04800000PO 9012168772                                                                                                                                                                                                                                                                                       
820   DTM0490000099920170808                                                
820   RMR04600000IV 101144241                                           200000000000000949520000000000000095912000000000000000096PT0000000000000000000
820   REF04800000PO 9012167865                                                                                                                                                                                                                                                                                       
820   DTM0490000099920170808                                                
820   RMR04600000IV 101144242                                           200000000000000915920000000000000092442000000000000000085PT0000000000000000000
820   REF04800000PO 9012167244                                                                                                                                                                                                                                                                                       
820   DTM0490000099920170808                                                
820   RMR04600000IV 101144243                                           200000000000000964920000000000000097391000000000000000009PT0000000000000000000
820   REF04800000PO 9012167238                                                                                                                                                                                                                                                                                       
820   DTM0490000099920170808                                                
820   RMR04600000IV 101144244                                           200000000000000785920000000000000079382000000000000000079PT0000000000000000000
820   REF04800000PO 9012166072                                                                                                                                                                                                                                                                                       
820   DTM0490000099920170808                                                
820   RMR04600000IV 101144245                                           200000000000001090420000000000000110141000000000000000011PT0000000000000000000
820   REF04800000PO 9012168766                                                                                                                                                                                                                                                                                       
820   DTM0490000099920170808                                                
820   RMR04600000IV 101144247                                           200000000000000986120000000000000099610000000000000000001PT0000000000000000000
820   REF04800000PO 9012169989                                                                                                                                                                                                                                                                                       
820   DTM0490000099920170808                                                
820   RMR04600000IV 101144248                                           200000000000000872420000000000000088122000000000000000088PT0000000000000000000
820   REF04800000PO 9012169577                                                                                                                                                                                                                                                                                       
820   DTM0490000099920170808                                                
820   RMR04600000IV 101144249                                           200000000000001146220000000000000115692000000000000000107PT0000000000000000000
820   REF04800000PO 9012169003                                                                                                                                                                                                                                                                                       
820   DTM0490000099920170808                                                
820   RMR04600000IV 101144252                                           200000000000000934420000000000000094382000000000000000094PT0000000000000000000
820   REF04800000PO 9012168994                                                                                                                                                                                                                                                                                       
820   DTM0490000099920170808                                                
820   RMR04600000IV 101144255                                           200000000000001068520000000000000107932000000000000000108PT0000000000000000000
820   REF04800000PO 9012173416                                                                                                                                                                                                                                                                                       
820   DTM0490000099920170808                                                
820   RMR04600000IV 101144257                                           200000000000000934820000000000000094422000000000000000094PT0000000000000000000
820   REF04800000PO 9012173131                                                                                                                                                                                                                                                                                       
820   DTM0490000099920170808                                                
820   RMR04600000IV 101144258                                           200000000000000938510000000000000009482000000000000000095PT0000000000000000000
820   REF04800000PO 9012172952                                                                                                                                                                                                                                                                                       
820   DTM0490000099920170808                                                
820   RMR04600000IV 101144261                                           200000000000000787320000000000000079531000000000000000008PT0000000000000000000
820   REF04800000PO 9012172485                                                                                                                                                                                                                                                                                       
820   DTM0490000099920170808                                                
820   RMR04600000IV 101144262                                           200000000000001000320000000000000101042000000000000000101PT0000000000000000000
820   REF04800000PO 9012171443                                                                                                                                                                                                                                                                                       
820   DTM0490000099920170808                                                
820   RMR04600000IV 101144280                                           100000000000000087220000000000000088082000000000000000088PT0000000000000000000
820   REF04800000PO 9012175130                                                                                                                                                                                                                                                                                       
820   DTM0490000099920170808                                                
820   RMR04600000IV 101144510                                           000000000000000009720000000000000097982000000000000000098PT0000000000000000000
820   REF04800000PO 9012183667                                                                                                                                                                                                                                                                                       
820   DTM0490000099920170808                                                
820   RMR04600000IV 101144512                                           200000000000000783420000000000000079132000000000000000079PT0000000000000000000
820   REF04800000PO 9012183004                                                                                                                                                                                                                                                                                       
820   DTM0490000099920170808                                                
820   RMR04600000IV 101144513                                           200000000000000989220000000000000099920000000000000000001PT0000000000000000000
820   REF04800000PO 9012181701                                                                                                                                                                                                                                                                                       
820   DTM0490000099920170808                                                
820   RMR04600000IV 101144515                                           000000000000000009720000000000000097982000000000000000098PT0000000000000000000
820   REF04800000PO 9012183760                                                                                                                                                                                                                                                                                       
820   DTM0490000099920170808                                                
820   RMR04600000IV 101144520                                           200000000000000833120000000000000084152000000000000000084PT0000000000000000000
820   REF04800000PO 9012183838                                                                                                                                                                                                                                                                                       
820   DTM0490000099920170808                                                
820   RMR04600000IV 101144522                                           200000000000000826120000000000000083442000000000000000083PT0000000000000000000
820   REF04800000PO 9012185172                                                                                                                                                                                                                                                                                       
820   DTM0490000099920170808                                                
820   RMR04600000IV 101144524                                           200000000000001028720000000000000103832000000000000000096PT0000000000000000000
820   REF04800000PO 9012185115                                                                                                                                                                                                                                                                                       
820   DTM0490000099920170808                                                
820   RMR04600000IV 101144525                                           200000000000002679520000000000000270662000000000000000271PT0000000000000000000
820   REF04800000PO 9012185058                                                                                                                                                                                                                                                                                       
820   DTM0490000099920170808                                                
820   RMR04600000IV 101144526                                           200000000000001060200000000000000001072000000000000000098PT0000000000000000000
820   REF04800000PO 9012185039                                                                                                                                                                                                                                                                                       
820   DTM0490000099920170808                                                
820   RMR04600000IV 101142887                                           200000000000000784720000000000000079262000000000000000079PT0000000000000000000
820   REF04800000PO 9012133116                                                                                                                                                                                                                                                                                       
820   DTM0490000099920170807                                                
820   RMR04600000IV 101142890                                           200000000000000784420000000000000079232000000000000000079PT0000000000000000000
820   REF04800000PO 9012163389                                                                                                                                                                                                                                                                                       
820   DTM0490000099920170807                                                
820   RMR04600000IV 101142894                                           200000000000000873720000000000000088192000000000000000082PT0000000000000000000
820   REF04800000PO 9012165331                                                                                                                                                                                                                                                                                       
820   DTM0490000099920170807                                                
820   RMR04600000IV 101142895                                           200000000000000961120000000000000097011000000000000000009PT0000000000000000000
820   REF04800000PO 9012165256                                                                                                                                                                                                                                                                                       
820   DTM0490000099920170807                                                
