812   00000000000                      CD               HDEPOT2                       0000305243080     000019014004060      000004060004060X X4064060604060                              P P                                        
812   BCD00200000201702200                     A 2000000000000001D20170210101050506                                   2017020185033062                  ST 5085                                                
812   N9 00400000VR 000265438                                                                                                                                                                                                                                                                       
812   N9 00400000VV WLNBLM                                                                                                                                                                                                                                                                          
812   N9 00400000RV 508560573                                                                                                                                                                                                                                                                       
812   N9 00400000DP 27                                                                                                                                                                                                                                                                              
812   N9 00400000FR NONE                                                                                                                                                                                                                                                                            
812   FOB00800000CC                                                                                    ZZZDEDESTINATION                                                                                                                                                       
812   SHD009000000000000000000000001CT                                              ZZ UNKNOWN                                           
812   N1 01100000BT FEIT ELECTRIC COMPANY                                                                                                                              
812   N3 01300000ATTN PAT GRANADO                                       4901 GREGG RD                                          
812   N4 01400000PICO RIVERA                   CA90660                                                
812   CDD0220000024D                    2000000000000001                                                                                                                                                                                                                                                                                                                                                   
812   00000000000                      CD               HDEPOT2                       0000305243080     000019013004060      000004060004060X X4064060604060                              P P                                        
812   BCD00200000201702200                     A 2000000000803599D20170118101039748                                   2017011335904664                  ST 5024                                                
812   N9 00400000VR 000265438                                                                                                                                                                                                                                                                       
812   N9 00400000VV VSSWQX                                                                                                                                                                                                                                                                          
812   N9 00400000RV 502426654                                                                                                                                                                                                                                                                       
812   N9 00400000DP 27                                                                                                                                                                                                                                                                              
812   N9 00400000FR 0870065661                                                                                                                                                                                                                                                                      
812   FOB00800000CC                                                                                    ZZZDEDESTINATION                                                                                                                                                       
812   SHD009000000000000000000000593CT                                              ZZ UNKNOWN                                           
812   N1 01100000BT FEIT ELECTRIC COMPANY                                                                                                                              
812   N3 01300000ATTN PAT GRANADO                                       4901 GREGG RD                                          
812   N4 01400000PICO RIVERA                   CA90660                                                
812   CDD0220000024D                    2000000000531291                                                                                                                                                                                                                                                                                                                                                   
812   CDD0220000006D                    2000000000111392    00000000032ZZ                UCP200000000000003481INV200000000000003481                                                                                                                                                                                                                                                                        
812   LIN02300000                    SK1001797929                                      VPBR30D10KLE                                                                                                                                                                                                                                                                                                                                                                                                                                                                                                                                                                                                                                                                                                                
812   00000000000                      CD               HDEPOT2                       0000305243080     000019012004060      000004060004060X X4064060604060                              P P                                        
812   BCD00200000201702200                     A 1000000000027764D20170118101039748                                   2017011335904664                  ST 5024                                                
812   N9 00400000VR 000265438                                                                                                                                                                                                                                                                       
812   N9 00400000VV VSSWQX                                                                                                                                                                                                                                                                          
812   N9 00400000RV 502426431                                                                                                                                                                                                                                                                       
812   N9 00400000DP 27                                                                                                                                                                                                                                                                              
812   N9 00400000FR 0870065709                                                                                                                                                                                                                                                                      
812   FOB00800000CC                                                                                    ZZZDEDESTINATION                                                                                                                                                       
812   SHD009000000000000000000000198CT                                              ZZ UNKNOWN                                           
812   N1 01100000BT FEIT ELECTRIC COMPANY                                                                                                                              
812   N3 01300000ATTN PAT GRANADO                                       4901 GREGG RD                                          
812   N4 01400000PICO RIVERA                   CA90660                                                
812   CDD0220000024D                    2000000000116724                                                                                                                                                                                                                                                                                                                                                   
812   CDD0220000006D                    1000000000001524    00000000060ZZ                UCP200000000000000254INV200000000000000254                                                                                                                                                                                                                                                                        
812   LIN02300000                    SK283413                                                                                                                                                                                                                                                                                                                                                                                                                                                                                                                                                                                                                                                                                                                                                                      
812   CDD0220000006D                    1000000000002024    00000000016ZZ                UCP200000000000001265INV200000000000001265                                                                                                                                                                                                                                                                        
812   LIN02300000                    SK1001372516                                                                                                                                                                                                                                                                                                                                                                                                                                                                                                                                                                                                                                                                                                                                                                  
812   CDD0220000006D                    1000000000001578    00000000012ZZ                UCP200000000000001315INV200000000000001315                                                                                                                                                                                                                                                                        
812   LIN02300000                    SK1001797845                                                                                                                                                                                                                                                                                                                                                                                                                                                                                                                                                                                                                                                                                                                                                                  
812   CDD0220000006D                    2000000000107408    00000000056ZZ                UCP200000000000001918INV200000000000001918                                                                                                                                                                                                                                                                        
812   LIN02300000                    SK1001797960                                                                                                                                                                                                                                                                                                                                                                                                                                                                                                                                                                                                                                                                                                                                                                  
812   CDD0220000006D                    2000000000002248    00000000004ZZ                UCP200000000000000562INV200000000000000562                                                                                                                                                                                                                                                                        
812   LIN02300000                    SK1001357494                                      VPBPST19/LED                                                                                                                                                                                                                                                                                                                                                                                                                                                                                                                                                                                                                                                                                                                
812   00000000000                      CD               HDEPOT2                       0000305233079     000019011004060      000004060004060X X4064060604060                              P P                                        
812   BCD0020000020170219086168559             O 2000000000011533D        0000000000                                                                    ST 8616                                                
812   N9 00400000VR 000265438                                                                                                                                                                                                                                                                       
812   N9 00400000RZ Not Required                                                                                                                                                                                                                                                                    
812   N9 00400000MR 000060371                                                                                                                                                                                                                                                                       
812   N9 00400000DP 27                                                                                                                                                                                                                                                                              
812   N9 00400000L1 12                                                                                                                                                                                                                                                                              
812   N9 00400000ZZ 05                                                                                                                                                                                                                                                                              
812   N9 00400000MB 000194036                                                                                                                                                                                                                                                                       
812   FOB00800000PC                                                                                                                                                                                                                                                           
812   SHD009000000000000000000000000CT                                                                                                   
812   N1 01100000BT FEIT ELECTRIC COMPANY                                                                                                                              
812   N3 01300000ATTN PAT GRANADO                                       4901 GREGG RD                                          
812   N4 01400000PICO RIVERA                   CA90660                                                
812   N1 01100000ST FEIT ELECTRIC CO                                                                                                                                   
812   N1 01100000SN ATLANTA RLC                                                                                                                                        
812   N3 01300000180 WESTRIDGE PKWY                                     SUITE 300                                              
812   N4 01400000MCDONOUGH                     GA30253                                                
812   CDD02200000RMD                                        00000000001EA                UCP400000000000604323ICL400000000000604323CE 1X4 LED EDGE-LIT, WHITE TRIM                                                                                                                                                                                                                                         
812   LIN02300000                    SK1001375544                                      VP74031/HD                                        PO16739366                                                                                                                                                                                                                                                                                                                                                                                                                                                                                                                                                                                                                                                                
812   CDD02200000RMD                                        00000000002EA                UCP300000000000027448ICL300000000000054896CE 1X1 LED EDGE-LIT, WHITE TRIM                                                                                                                                                                                                                                         
812   LIN02300000                    SK1001375553                                      VP74029/HD                                        PO16785345                                                                                                                                                                                                                                                                                                                                                                                                                                                                                                                                                                                                                                                                
812   00000000000                      CD               HDEPOT2                       0000305233079     000019010004060      000004060004060X X4064060604060                              P P                                        
812   BCD0020000020170219086168558             O 2000000000049168D        0000000000                                                                    ST 8616                                                
812   N9 00400000VR 000265438                                                                                                                                                                                                                                                                       
812   N9 00400000RZ Not Required                                                                                                                                                                                                                                                                    
812   N9 00400000MR 000060371                                                                                                                                                                                                                                                                       
812   N9 00400000DP 27                                                                                                                                                                                                                                                                              
812   N9 00400000L1 01                                                                                                                                                                                                                                                                              
812   N9 00400000ZZ 05                                                                                                                                                                                                                                                                              
812   N9 00400000MB 000194036                                                                                                                                                                                                                                                                       
812   FOB00800000PP                                                                                                                                                                                                                                                           
812   SHD009000000000000000000000000CT                                                                                                   
812   N1 01100000BT FEIT ELECTRIC COMPANY                                                                                                                              
812   N3 01300000ATTN PAT GRANADO                                       4901 GREGG RD                                          
812   N4 01400000PICO RIVERA                   CA90660                                                
812   N1 01100000ST FEIT ELECTRIC CO                                                                                                                                   
812   N1 01100000SN ATLANTA RLC                                                                                                                                        
812   N3 01300000180 WESTRIDGE PKWY                                     SUITE 300                                              
812   N4 01400000MCDONOUGH                     GA30253                                                
812   CDD02200000RMD                                        00000000003EA                UCP400000000000299804ICL400000000000899412CE 15 IN ROUND LED EDGE-LIT, WHITE                                                                                                                                                                                                                                      
812   LIN02300000                    SK1001375539                                      VP74048/HD                                        PO16756033                                                                                                                                                                                                                                                                                                                                                                                                                                                                                                                                                                                                                                                                
812   CDD02200000RMD                                        00000000001ZZ                UCP400000000000299187ICL400000000000299187                                                                                                                                                                                                                                                                        
812   LIN02300000                    SK1001375539                                      VP74048/HD                                        PO16715820                                                                                                                                                                                                                                                                                                                                                                                                                                                                                                                                                                                                                                                                
812   CDD02200000RMD                                        00000000001EA                UCP400000000000603775ICL400000000000603775CE 1X4 LED EDGE-LIT, WHITE TRIM                                                                                                                                                                                                                                         
812   LIN02300000                    SK1001375544                                      VP74031/HD                                        PO16742897                                                                                                                                                                                                                                                                                                                                                                                                                                                                                                                                                                                                                                                                
812   CDD02200000RMD                                        00000000003ZZ                UCP400000000000604323ICL400000000001812969                                                                                                                                                                                                                                                                        
812   LIN02300000                    SK1001375544                                      VP74031/HD                                        PO16725870                                                                                                                                                                                                                                                                                                                                                                                                                                                                                                                                                                                                                                                                
812   CDD02200000RMD                                        00000000001EA                UCP300000000000027448ICL300000000000027448CE 1X1 LED EDGE-LIT, WHITE TRIM                                                                                                                                                                                                                                         
812   LIN02300000                    SK1001375553                                      VP74029/HD                                        PO16736197                                                                                                                                                                                                                                                                                                                                                                                                                                                                                                                                                                                                                                                                
812   CDD02200000RMD                                        00000000001ZZ                UCP400000000000274851ICL400000000000274851                                                                                                                                                                                                                                                                        
812   LIN02300000                    SK1001375553                                      VP74029/HD                                        PO16708482                                                                                                                                                                                                                                                                                                                                                                                                                                                                                                                                                                                                                                                                
812   CDD02200000RMD                                        00000000001EA                UCP400000000000377069ICL400000000000377069CE 1X2 LED EDGE-LIT, WHITE TRIM                                                                                                                                                                                                                                         
812   LIN02300000                    SK1001375577                                      VP74030/HD                                        PO16734445                                                                                                                                                                                                                                                                                                                                                                                                                                                                                                                                                                                                                                                                
812   CDD02200000RMD                                        00000000001ZZ                UCP300000000000037508ICL300000000000037508                                                                                                                                                                                                                                                                        
812   LIN02300000                    SK1001375577                                      VP74030/HD                                        PO16717308                                                                                                                                                                                                                                                                                                                                                                                                                                                                                                                                                                                                                                                                
812   00000000000                      CD               HDEPOT2                       0000305233079     000019009004060      000004060004060X X4064060604060                              P P                                        
812   BCD0020000020170219086155676             O 2000000000006088D        0000000000                                                                    ST 8615                                                
812   N9 00400000VR 000265438                                                                                                                                                                                                                                                                       
812   N9 00400000RZ Not Required                                                                                                                                                                                                                                                                    
812   N9 00400000MR 000060371                                                                                                                                                                                                                                                                       
812   N9 00400000DP 27                                                                                                                                                                                                                                                                              
812   N9 00400000L1 12                                                                                                                                                                                                                                                                              
812   N9 00400000ZZ 05                                                                                                                                                                                                                                                                              
812   N9 00400000MB 000223001                                                                                                                                                                                                                                                                       
812   FOB00800000PP                                                                                                                                                                                                                                                           
812   SHD009000000000000000000000000CT                                                                                                   
812   N1 01100000BT FEIT ELECTRIC COMPANY                                                                                                                              
812   N3 01300000ATTN PAT GRANADO                                       4901 GREGG RD                                          
812   N4 01400000PICO RIVERA                   CA90660                                                
812   N1 01100000ST FEIT ELECTRIC CO                                                                                                                                   
812   N1 01100000SN INDIANAPOLIS RLC                                                                                                                                   
812   N3 013000001390 SOUTH PERRY ROAD                                                                                         
812   N4 01400000PLAINFIELD                    IN46168                                                
812   CDD02200000RMD                                        00000000001EA                UCP400000000000608838ICL400000000000608838CE 1X4 LED EDGE-LIT, WHITE TRIM                                                                                                                                                                                                                                         
812   LIN02300000                    SK1001375544                                      VP74031/HD                                        PO15779678                                                                                                                                                                                                                                                                                                                                                                                                                                                                                                                                                                                                                                                                
812   00000000000                      CD               HDEPOT2                       0000305233079     000019008004060      000004060004060X X4064060604060                              P P                                        
812   BCD0020000020170219086155675             O 2000000000046794D        0000000000                                                                    ST 8615                                                
812   N9 00400000VR 000265438                                                                                                                                                                                                                                                                       
812   N9 00400000RZ Not Required                                                                                                                                                                                                                                                                    
812   N9 00400000MR 000060371                                                                                                                                                                                                                                                                       
812   N9 00400000DP 27                                                                                                                                                                                                                                                                              
812   N9 00400000L1 01                                                                                                                                                                                                                                                                              
812   N9 00400000ZZ 05                                                                                                                                                                                                                                                                              
812   N9 00400000MB 000223001                                                                                                                                                                                                                                                                       
812   FOB00800000PC                                                                                                                                                                                                                                                           
812   SHD009000000000000000000000000CT                                                                                                   
812   N1 01100000BT FEIT ELECTRIC COMPANY                                                                                                                              
812   N3 01300000ATTN PAT GRANADO                                       4901 GREGG RD                                          
812   N4 01400000PICO RIVERA                   CA90660                                                
812   N1 01100000ST FEIT ELECTRIC CO                                                                                                                                   
812   N1 01100000SN INDIANAPOLIS RLC                                                                                                                                   
812   N3 013000001390 SOUTH PERRY ROAD                                                                                         
812   N4 01400000PLAINFIELD                    IN46168                                                
812   CDD02200000RMD                                        00000000001EA                UCP400000000000187381ICL400000000000187381CE 11 IN ROUND LED EDGE-LIT, WHITE                                                                                                                                                                                                                                      
812   LIN02300000                    SK1001375535                                      VP74047/HD                                        PO15744821                                                                                                                                                                                                                                                                                                                                                                                                                                                                                                                                                                                                                                                                
812   CDD02200000RMD                                        00000000003ZZ                UCP400000000000188071ICL400000000000564213                                                                                                                                                                                                                                                                        
812   LIN02300000                    SK1001375535                                      VP74047/HD                                        PO15739177                                                                                                                                                                                                                                                                                                                                                                                                                                                                                                                                                                                                                                                                
812   CDD02200000RMD                                        00000000003EA                UCP300000000000029969ICL300000000000089907CE 15 IN ROUND LED EDGE-LIT, WHITE                                                                                                                                                                                                                                      
812   LIN02300000                    SK1001375539                                      VP74048/HD                                        PO15721447                                                                                                                                                                                                                                                                                                                                                                                                                                                                                                                                                                                                                                                                
812   CDD02200000RMD                                        00000000001ZZ                UCP400000000000299804ICL400000000000299804                                                                                                                                                                                                                                                                        
812   LIN02300000                    SK1001375539                                      VP74048/HD                                        PO15723842                                                                                                                                                                                                                                                                                                                                                                                                                                                                                                                                                                                                                                                                
812   CDD02200000RMD                                        00000000002EA                UCP400000000000603775ICL300000000000120755CE 1X4 LED EDGE-LIT, WHITE TRIM                                                                                                                                                                                                                                         
812   LIN02300000                    SK1001375544                                      VP74031/HD                                        PO15727586                                                                                                                                                                                                                                                                                                                                                                                                                                                                                                                                                                                                                                                                
812   CDD02200000RMD                                        00000000001EA                UCP400000000000274624ICL400000000000274624CE 1X1 LED EDGE-LIT, WHITE TRIM                                                                                                                                                                                                                                         
812   LIN02300000                    SK1001375553                                      VP74029/HD                                        PO15724567                                                                                                                                                                                                                                                                                                                                                                                                                                                                                                                                                                                                                                                                
812   CDD02200000RMD                                        00000000002EA                UCP400000000000623354ICL400000000001246708CE 2X2 LED EDGE-LIT(2IN1), WHITE                                                                                                                                                                                                                                        
812   LIN02300000                    SK1001375582                                      VP74032/HD                                        PO15765946                                                                                                                                                                                                                                                                                                                                                                                                                                                                                                                                                                                                                                                                
812   00000000000                      CD               HDEPOT2                       0000305233079     000019007004060      000004060004060X X4064060604060                              P P                                        
812   BCD0020000020170218086155258             O 2000000000105498D        0000000000                                                                    ST 8615                                                
812   N9 00400000VR 000265438                                                                                                                                                                                                                                                                       
812   N9 00400000RZ NA                                                                                                                                                                                                                                                                              
812   N9 00400000MR 060082092                                                                                                                                                                                                                                                                       
812   N9 00400000DP 27                                                                                                                                                                                                                                                                              
812   N9 00400000L1 14                                                                                                                                                                                                                                                                              
812   N9 00400000ZZ 05                                                                                                                                                                                                                                                                              
812   N9 00400000MB 000222998                                                                                                                                                                                                                                                                       
812   FOB00800000PC                                                                                                                                                                                                                                                           
812   SHD009000000000000000000000000CT                                                                                                   
812   N1 01100000BT FEIT ELECTRIC COMPANY                                                                                                                              
812   N3 01300000ATTN PAT GRANADO                                       4901 GREGG RD                                          
812   N4 01400000PICO RIVERA                   CA90660                                                
812   N1 01100000ST S/O FEIT ELECTRIC                                                                                                                                  
812   N1 01100000SN INDIANAPOLIS RLC                                                                                                                                   
812   N3 013000001390 SOUTH PERRY ROAD                                                                                         
812   N4 01400000PLAINFIELD                    IN46168                                                
812   CDD02200000RMD                                        00000000001CA                UCP200000000000005898ICL2000000000000058985 IN. AND 6 IN. WHITE BR30 TRIM RECE                                                                                                                                                                                                                                    
812   LIN02300000                    SK1001680884                                      VPLEDR56/827/4                                    PO79426218                                                                                                                                                                                                                                                                                                                                                                                                                                                                                                                                                                                                                                                                
812   CDD02200000RMD                                        00000000012CA                UCP000000000000000083ICL00000000000000099640W EQUIVALENT WARM WHITE (3000K) G2                                                                                                                                                                                                                                    
812   LIN02300000                    SK1001836707                                      VPG25CLDMLEDG2/12                                 PO81474110                                                                                                                                                                                                                                                                                                                                                                                                                                                                                                                                                                                                                                                                
812   00000000000                      CD               HDEPOT2                       0000305233079     000019006004060      000004060004060X X4064060604060                              P P                                        
812   BCD0020000020170219066709757             O 2000000000000521D        0000000000                                                                    ST 6670                                                
812   N9 00400000VR 000265438                                                                                                                                                                                                                                                                       
812   N9 00400000DP 27                                                                                                                                                                                                                                                                              
812   N9 00400000L1 01                                                                                                                                                                                                                                                                              
812   N9 00400000ZZ 05                                                                                                                                                                                                                                                                              
812   N9 00400000MB 0000000000                                                                                                                                                                                                                                                                      
812   SHD009000000000000000000000000CT                                                                                                   
812   N1 01100000BT FEIT ELECTRIC COMPANY                                                                                                                              
812   N3 01300000ATTN PAT GRANADO                                       4901 GREGG RD                                          
812   N4 01400000PICO RIVERA                   CA90660                                                
812   N1 01100000SN CARSON                                                                                                                                             
812   N3 01300000110 E SEPULVEDA BLVD                                                                                          
812   N4 01400000CARSON                        CA90745                                                
812   CDD02200000RMD                                        00000000001EA                UCP400000000000052146ICL400000000000052146ES 23W DAYLIGHT SPIRAL CFL BULB 4PK                                                                                                                                                                                                                                     
812   LIN02300000                    SK384314                                          VPESL23TM/5K/4ESM                                                                                                                                                                                                                                                                                                                                                                                                                                                                                                                                                                                                                                                                                                           
812   00000000000                      CD               HDEPOT2                       0000305233079     000019005004060      000004060004060X X4064060604060                              P P                                        
812   BCD0020000020170218010858994             O 2000000000000383D        0000000000                                                                    ST 1085                                                
812   N9 00400000VR 000265438                                                                                                                                                                                                                                                                       
812   N9 00400000DP 27                                                                                                                                                                                                                                                                              
812   N9 00400000L1 01                                                                                                                                                                                                                                                                              
812   N9 00400000ZZ 05                                                                                                                                                                                                                                                                              
812   N9 00400000MB 0000000000                                                                                                                                                                                                                                                                      
812   SHD009000000000000000000000000CT                                                                                                   
812   N1 01100000BT FEIT ELECTRIC COMPANY                                                                                                                              
812   N3 01300000ATTN PAT GRANADO                                       4901 GREGG RD                                          
812   N4 01400000PICO RIVERA                   CA90660                                                
812   N1 01100000SN PLACERVILLE                                                                                                                                        
812   N3 01300000600 PLACERVILLE DR                                                                                            
812   N4 01400000PLACERVILLE                   CA95667                                                
812   CDD02200000RMD                                        00000000001EA                UCP400000000000038284ICL400000000000038284ES 14W DAYLIGHT SPIRAL BULB 4PK                                                                                                                                                                                                                                         
812   LIN02300000                    SK161167                                          VPESL13T/5K/4/ESM                                                                                                                                                                                                                                                                                                                                                                                                                                                                                                                                                                                                                                                                                                           
812   00000000000                      CD               HDEPOT2                       0000305233079     000019004004060      000004060004060X X4064060604060                              P P                                        
812   BCD0020000020170219004777283             O 2000000000000368D        0000000000                                                                    ST 477                                                 
812   N9 00400000VR 000265438                                                                                                                                                                                                                                                                       
812   N9 00400000DP 27                                                                                                                                                                                                                                                                              
812   N9 00400000L1 01                                                                                                                                                                                                                                                                              
812   N9 00400000ZZ 05                                                                                                                                                                                                                                                                              
812   N9 00400000MB 0000000000                                                                                                                                                                                                                                                                      
812   SHD009000000000000000000000000CT                                                                                                   
812   N1 01100000BT FEIT ELECTRIC COMPANY                                                                                                                              
812   N3 01300000ATTN PAT GRANADO                                       4901 GREGG RD                                          
812   N4 01400000PICO RIVERA                   CA90660                                                
812   N1 01100000SN THOMAS RD                                                                                                                                          
812   N3 013000003609 E THOMAS RD                                                                                              
812   N4 01400000PHOENIX                       AZ85018                                                
812   CDD02200000RMD                                        00000000001EA                UCP400000000000036793ICL400000000000036793ES 9W SW SPIRAL CFL BULB 4PK                                                                                                                                                                                                                                            
812   LIN02300000                    SK148545                                          VPESL9TM/4/ESM                                                                                                                                                                                                                                                                                                                                                                                                                                                                                                                                                                                                                                                                                                              
