812   00000000000                      CD               HD812                         000000911659      000151479004060      000004060004060X X4064060604060                              P P                                        
812   BCD00200000201809150                     A 2000000000002185D20180323101275281                                   2018031625934066                  ST 5034                                                
812   N9 00400000VR 000265438                                                                                                                                                                                                                                                                       
812   N9 00400000VV WXVZBD                                                                                                                                                                                                                                                                          
812   N9 00400000RV 503476064                                                                                                                                                                                                                                                                       
812   N9 00400000DP 27                                                                                                                                                                                                                                                                              
812   N9 00400000FR NONE                                                                                                                                                                                                                                                                            
812   FOB00800000CC                                                                                    ZZZDEDESTINATION                                                                                                                                                       
812   SHD009000000000000000000000035CT                                              ZZ UNKNOWN                                           
812   N1 01100000BT FEIT ELECTRIC COMPANY                                                                                                                              
812   N3 01300000ATTN PAT GRANADO                                       4901 GREGG RD                                          
812   N4 01400000PICO RIVERA                   CA90660                                                
812   CDD0220000024D                    2000000000002185                                                                                                                                                                                                                                                                                                                                                   
812   00000000000                      CD               HD812                         000000911659      000151478004060      000004060004060X X4064060604060                              P P                                        
812   BCD00200000201809150                     A 2000000000001821D20180323101275243                                   2018031533922813                  ST 5085                                                
812   N9 00400000VR 000265438                                                                                                                                                                                                                                                                       
812   N9 00400000VV WXVYZQ                                                                                                                                                                                                                                                                          
812   N9 00400000RV 508591189                                                                                                                                                                                                                                                                       
812   N9 00400000DP 27                                                                                                                                                                                                                                                                              
812   N9 00400000FR NONE                                                                                                                                                                                                                                                                            
812   FOB00800000CC                                                                                    ZZZDEDESTINATION                                                                                                                                                       
812   SHD009000000000000000000000001CT                                              ZZ UNKNOWN                                           
812   N1 01100000BT FEIT ELECTRIC COMPANY                                                                                                                              
812   N3 01300000ATTN PAT GRANADO                                       4901 GREGG RD                                          
812   N4 01400000PICO RIVERA                   CA90660                                                
812   CDD0220000024D                    2000000000001821                                                                                                                                                                                                                                                                                                                                                   
812   00000000000                      CD               HD812                         000000911659      000151477004060      000004060004060X X4064060604060                              P P                                        
812   BCD00200000201809150                     A 2000000000308109D20180809101344175                                   2018080225901071                  ST 5851                                                
812   N9 00400000VR 000265438                                                                                                                                                                                                                                                                       
812   N9 00400000VV CPMHXZ                                                                                                                                                                                                                                                                          
812   N9 00400000RV 585181977                                                                                                                                                                                                                                                                       
812   N9 00400000DP 27                                                                                                                                                                                                                                                                              
812   N9 00400000FR 207261203                                                                                                                                                                                                                                                                       
812   FOB00800000CC                                                                                    ZZZDEDESTINATION                                                                                                                                                       
812   SHD009000000000000000000000126CT                                              ZZ UNKNOWN                                           
812   N1 01100000BT FEIT ELECTRIC COMPANY                                                                                                                              
812   N3 01300000ATTN PAT GRANADO                                       4901 GREGG RD                                          
812   N4 01400000PICO RIVERA                   CA90660                                                
812   CDD0220000024D                    2000000000113601                                                                                                                                                                                                                                                                                                                                                   
812   CDD0220000006D                    2000000000194508    00000000108ZZ                UCP200000000000001801INV200000000000001801                                                                                                                                                                                                                                                                        
812   LIN02300000                    SK1001698107                                                                                                                                                                                                                                                                                                                                                                                                                                                                                                                                                                                                                                                                                                                                                                  
