812   00000000000                      CD               HDEPOT2                       0000299042923     000017509004060      000004060004060X X4064060604060                              P P                                        
812   BCD0020000020161026089405096             O 2000000000000521D        0000000000                                                                    ST 8940                                                
812   N9 00400000VR 000265438                                                                                                                                                                                                                                                                       
812   N9 00400000DP 27                                                                                                                                                                                                                                                                              
812   N9 00400000L1 01                                                                                                                                                                                                                                                                              
812   N9 00400000ZZ 05                                                                                                                                                                                                                                                                              
812   N9 00400000MB 0000000000                                                                                                                                                                                                                                                                      
812   SHD009000000000000000000000000CT                                                                                                   
812   N1 01100000BT FEIT ELECTRIC COMPANY                                                                                                                              
812   N3 01300000ATTN PAT GRANADO                                       4901 GREGG RD                                          
812   N4 01400000PICO RIVERA                   CA90660                                                
812   N1 01100000SN SE ANCHORAGE                                                                                                                                       
812   N3 013000001715 ABBOTT ROAD                                                                                              
812   N4 01400000ANCHORAGE                     AK99507                                                
812   CDD02200000RMD                                        00000000001EA                UCP400000000000052093ICL400000000000052093ECS 23W (100W)  TWIST CFL  BW 4PK                                                                                                                                                                                                                                       
812   LIN02300000                    SK186353                                          VPESL23TM/BW4/ESM                                                                                                                                                                                                                                                                                                                                                                                                                                                                                                                                                                                                                                                                                                           
812   00000000000                      CD               HDEPOT2                       0000299042923     000017508004060      000004060004060X X4064060604060                              P P                                        
812   BCD0020000020161026086172366             O 2000000000020545D        0000000000                                                                    ST 8617                                                
812   N9 00400000VR 000265438                                                                                                                                                                                                                                                                       
812   N9 00400000RZ Not Required                                                                                                                                                                                                                                                                    
812   N9 00400000MR 000060371                                                                                                                                                                                                                                                                       
812   N9 00400000DP 27                                                                                                                                                                                                                                                                              
812   N9 00400000L1 12                                                                                                                                                                                                                                                                              
812   N9 00400000ZZ 05                                                                                                                                                                                                                                                                              
812   N9 00400000MB 000382143                                                                                                                                                                                                                                                                       
812   FOB00800000PC                                                                                                                                                                                                                                                           
812   SHD009000000000000000000000000CT                                                                                                   
812   N1 01100000BT FEIT ELECTRIC COMPANY                                                                                                                              
812   N3 01300000ATTN PAT GRANADO                                       4901 GREGG RD                                          
812   N4 01400000PICO RIVERA                   CA90660                                                
812   N1 01100000ST FEIT ELECTRIC CO                                                                                                                                   
812   N1 01100000SN PHOENIX RLC                                                                                                                                        
812   N3 013000007200 W BUCKEYE RD                                                                                             
812   N4 01400000PHOENIX                       AZ85043                                                
812   CDD02200000RMD                                        00000000001EA                UCP400000000000187951ICL400000000000187951CE 11 IN ROUND LED EDGE-LIT, WHITE                                                                                                                                                                                                                                      
812   LIN02300000                    SK1001375535                                      VP74047/HD                                        PO17735309                                                                                                                                                                                                                                                                                                                                                                                                                                                                                                                                                                                                                                                                
812   CDD02200000RMD                                        00000000001EA                UCP400000000000296115ICL400000000000296115CE 15 IN ROUND LED EDGE-LIT, WHITE                                                                                                                                                                                                                                      
812   LIN02300000                    SK1001375539                                      VP74048/HD                                        PO17726992                                                                                                                                                                                                                                                                                                                                                                                                                                                                                                                                                                                                                                                                
812   CDD02200000RMD                                        00000000001EA                UCP400000000000595089ICL400000000000595089CE 1X4 LED EDGE-LIT, WHITE TRIM                                                                                                                                                                                                                                         
812   LIN02300000                    SK1001375544                                      VP74031/HD                                        PO17777503                                                                                                                                                                                                                                                                                                                                                                                                                                                                                                                                                                                                                                                                
812   CDD02200000RMD                                        00000000001EA                UCP400000000000370288ICL400000000000370288CE 1X2 LED EDGE-LIT, WHITE TRIM                                                                                                                                                                                                                                         
812   LIN02300000                    SK1001375577                                      VP74030/HD                                        PO17747937                                                                                                                                                                                                                                                                                                                                                                                                                                                                                                                                                                                                                                                                
812   CDD02200000RMD                                        00000000001EA                UCP400000000000605017ICL400000000000605017CE 2X2 LED EDGE-LIT(2IN1), WHITE                                                                                                                                                                                                                                        
812   LIN02300000                    SK1001375582                                      VP74032/HD                                        PO17706857                                                                                                                                                                                                                                                                                                                                                                                                                                                                                                                                                                                                                                                                
812   00000000000                      CD               HDEPOT2                       0000299042923     000017507004060      000004060004060X X4064060604060                              P P                                        
812   BCD0020000020161026086172365             O 1000000000006901D        0000000000                                                                    ST 8617                                                
812   N9 00400000VR 000265438                                                                                                                                                                                                                                                                       
812   N9 00400000RZ Not Required                                                                                                                                                                                                                                                                    
812   N9 00400000MR 000060371                                                                                                                                                                                                                                                                       
812   N9 00400000DP 27                                                                                                                                                                                                                                                                              
812   N9 00400000L1 01                                                                                                                                                                                                                                                                              
812   N9 00400000ZZ 05                                                                                                                                                                                                                                                                              
812   N9 00400000MB 000382143                                                                                                                                                                                                                                                                       
812   FOB00800000CC                                                                                                                                                                                                                                                           
812   SHD009000000000000000000000000CT                                                                                                   
812   N1 01100000BT FEIT ELECTRIC COMPANY                                                                                                                              
812   N3 01300000ATTN PAT GRANADO                                       4901 GREGG RD                                          
812   N4 01400000PICO RIVERA                   CA90660                                                
812   N1 01100000ST FEIT ELECTRIC CO                                                                                                                                   
812   N1 01100000SN PHOENIX RLC                                                                                                                                        
812   N3 013000007200 W BUCKEYE RD                                                                                             
812   N4 01400000PHOENIX                       AZ85043                                                
812   CDD02200000RMD                                        00000000001EA                UCP400000000000297412ICL400000000000297412CE 15 IN ROUND LED EDGE-LIT, WHITE                                                                                                                                                                                                                                      
812   LIN02300000                    SK1001375539                                      VP74048/HD                                        PO17706857                                                                                                                                                                                                                                                                                                                                                                                                                                                                                                                                                                                                                                                                
812   CDD02200000RMD                                        00000000001ZZ                UCP400000000000296115ICL400000000000296115                                                                                                                                                                                                                                                                        
812   LIN02300000                    SK1001375539                                      VP74048/HD                                        PO17753916                                                                                                                                                                                                                                                                                                                                                                                                                                                                                                                                                                                                                                                                
812   CDD02200000RMD                                        00000000002EA                UCP400000000000596001ICL400000000001192002CE 1X4 LED EDGE-LIT, WHITE TRIM                                                                                                                                                                                                                                         
812   LIN02300000                    SK1001375544                                      VP74031/HD                                        PO17726788                                                                                                                                                                                                                                                                                                                                                                                                                                                                                                                                                                                                                                                                
812   CDD02200000RMD                                        00000000001EA                UCP300000000000027193ICL300000000000027193CE 1X1 LED EDGE-LIT, WHITE TRIM                                                                                                                                                                                                                                         
812   LIN02300000                    SK1001375553                                      VP74029/HD                                        PO17720814                                                                                                                                                                                                                                                                                                                                                                                                                                                                                                                                                                                                                                                                
812   CDD02200000RMD                                        00000000001ZZ                UCP400000000000274412ICL400000000000274412                                                                                                                                                                                                                                                                        
812   LIN02300000                    SK1001375553                                      VP74029/HD                                        PO17754211                                                                                                                                                                                                                                                                                                                                                                                                                                                                                                                                                                                                                                                                
812   CDD02200000RMD                                        00000000001EA                UCP400000000000606148ICL400000000000606148CE 2X2 LED EDGE-LIT(2IN1), WHITE                                                                                                                                                                                                                                        
812   LIN02300000                    SK1001375582                                      VP74032/HD                                        PO17713827                                                                                                                                                                                                                                                                                                                                                                                                                                                                                                                                                                                                                                                                
812   CDD02200000RMD                                        00000000001ZZ                UCP400000000000605017ICL400000000000605017                                                                                                                                                                                                                                                                        
812   LIN02300000                    SK1001375582                                      VP74032/HD                                        PO17731632                                                                                                                                                                                                                                                                                                                                                                                                                                                                                                                                                                                                                                                                
812   CDD02200000RMD                                        00000000005ZZ                UCP400000000000616602ICL300000000000308301                                                                                                                                                                                                                                                                        
812   LIN02300000                    SK1001375582                                      VP74032/HD                                        PO17778295                                                                                                                                                                                                                                                                                                                                                                                                                                                                                                                                                                                                                                                                
812   CDD02200000RMD                                        00000000001EA                UCP400000000000139776ICL400000000000139776CE 4FT  LED SHOP LIGHT W/ PULL CHAIN                                                                                                                                                                                                                                    
812   LIN02300000                    SK1001698107                                      VP74104/HD                                        PO17723468                                                                                                                                                                                                                                                                                                                                                                                                                                                                                                                                                                                                                                                                
812   CDD02200000RMD                                        00000000001ZZ                UCP400000000000135211ICL400000000000135211                                                                                                                                                                                                                                                                        
812   LIN02300000                    SK1001698107                                      VP74104/HD                                        PO17746525                                                                                                                                                                                                                                                                                                                                                                                                                                                                                                                                                                                                                                                                
812   00000000000                      CD               HDEPOT2                       0000299042923     000017506004060      000004060004060X X4064060604060                              P P                                        
812   BCD0020000020161025086168175             O 2000000000023863D        0000000000                                                                    ST 8616                                                
812   N9 00400000VR 000265438                                                                                                                                                                                                                                                                       
812   N9 00400000RZ Not Required                                                                                                                                                                                                                                                                    
812   N9 00400000MR 000060371                                                                                                                                                                                                                                                                       
812   N9 00400000DP 27                                                                                                                                                                                                                                                                              
812   N9 00400000L1 01                                                                                                                                                                                                                                                                              
812   N9 00400000ZZ 05                                                                                                                                                                                                                                                                              
812   N9 00400000MB 000182109                                                                                                                                                                                                                                                                       
812   FOB00800000PC                                                                                                                                                                                                                                                           
812   SHD009000000000000000000000000CT                                                                                                   
812   N1 01100000BT FEIT ELECTRIC COMPANY                                                                                                                              
812   N3 01300000ATTN PAT GRANADO                                       4901 GREGG RD                                          
812   N4 01400000PICO RIVERA                   CA90660                                                
812   N1 01100000ST FEIT ELECTRIC CO                                                                                                                                   
812   N1 01100000SN ATLANTA RLC                                                                                                                                        
812   N3 01300000180 WESTRIDGE PKWY                                     SUITE 300                                              
812   N4 01400000MCDONOUGH                     GA30253                                                
812   CDD02200000RMD                                        00000000002EA                UCP400000000000299187ICL400000000000598374CE 15 IN ROUND LED EDGE-LIT, WHITE                                                                                                                                                                                                                                      
812   LIN02300000                    SK1001375539                                      VP74048/HD                                        PO16728283                                                                                                                                                                                                                                                                                                                                                                                                                                                                                                                                                                                                                                                                
812   CDD02200000RMD                                        00000000003ZZ                UCP400000000000299804ICL400000000000899412                                                                                                                                                                                                                                                                        
812   LIN02300000                    SK1001375539                                      VP74048/HD                                        PO16739415                                                                                                                                                                                                                                                                                                                                                                                                                                                                                                                                                                                                                                                                
812   CDD02200000RMD                                        00000000001EA                UCP300000000000027448ICL300000000000027448CE 1X1 LED EDGE-LIT, WHITE TRIM                                                                                                                                                                                                                                         
812   LIN02300000                    SK1001375553                                      VP74029/HD                                        PO16771560                                                                                                                                                                                                                                                                                                                                                                                                                                                                                                                                                                                                                                                                
812   CDD02200000RMD                                        00000000001EA                UCP400000000000613994ICL400000000000613994CE 2X2 LED EDGE-LIT(2IN1), WHITE                                                                                                                                                                                                                                        
812   LIN02300000                    SK1001375582                                      VP74032/HD                                        PO16728599                                                                                                                                                                                                                                                                                                                                                                                                                                                                                                                                                                                                                                                                
812   00000000000                      CD               HDEPOT2                       0000299042923     000017505004060      000004060004060X X4064060604060                              P P                                        
812   BCD0020000020161026086155426             O 1000000000001089D        0000000000                                                                    ST 8615                                                
812   N9 00400000VR 000265438                                                                                                                                                                                                                                                                       
812   N9 00400000RZ NA                                                                                                                                                                                                                                                                              
812   N9 00400000MR 060082092                                                                                                                                                                                                                                                                       
812   N9 00400000DP 27                                                                                                                                                                                                                                                                              
812   N9 00400000L1 14                                                                                                                                                                                                                                                                              
812   N9 00400000ZZ 05                                                                                                                                                                                                                                                                              
812   N9 00400000MB 000211433                                                                                                                                                                                                                                                                       
812   FOB00800000PC                                                                                                                                                                                                                                                           
812   SHD009000000000000000000000000CT                                                                                                   
812   N1 01100000BT FEIT ELECTRIC COMPANY                                                                                                                              
812   N3 01300000ATTN PAT GRANADO                                       4901 GREGG RD                                          
812   N4 01400000PICO RIVERA                   CA90660                                                
812   N1 01100000ST S/O FEIT ELECTRIC                                                                                                                                  
812   N1 01100000SN INDIANAPOLIS RLC                                                                                                                                   
812   N3 013000001390 SOUTH PERRY ROAD                                                                                         
812   N4 01400000PLAINFIELD                    IN46168                                                
812   CDD02200000RMD                                        00000000004EA                UCP200000000000001815ICL10000000000000072660W EQUIVALENT SOFT WHITE B10 CANDEL                                                                                                                                                                                                                                    
812   LIN02300000                    SK1001538265                                      VPBPCFC/500/LED/E                                 PO13420194                                                                                                                                                                                                                                                                                                                                                                                                                                                                                                                                                                                                                                                                
812   CDD02200000RMD                                        00000000002EA                UCP200000000000001815ICL10000000000000036360W EQUIVALENT SOFT WHITE G16.5 MEDI                                                                                                                                                                                                                                    
812   LIN02300000                    SK1001538268                                      VPBPGMCL500/LED/E                                 PO16495431                                                                                                                                                                                                                                                                                                                                                                                                                                                                                                                                                                                                                                                                
812   00000000000                      CD               HDEPOT2                       0000299042923     000017504004060      000004060004060X X4064060604060                              P P                                        
812   BCD0020000020161026086155205             O 1000000000002715D        0000000000                                                                    ST 8615                                                
812   N9 00400000VR 000265438                                                                                                                                                                                                                                                                       
812   N9 00400000RZ NA                                                                                                                                                                                                                                                                              
812   N9 00400000MR 060082092                                                                                                                                                                                                                                                                       
812   N9 00400000DP 27                                                                                                                                                                                                                                                                              
812   N9 00400000L1 14                                                                                                                                                                                                                                                                              
812   N9 00400000ZZ 05                                                                                                                                                                                                                                                                              
812   N9 00400000MB 000211427                                                                                                                                                                                                                                                                       
812   FOB00800000PC                                                                                                                                                                                                                                                           
812   SHD009000000000000000000000000CT                                                                                                   
812   N1 01100000BT FEIT ELECTRIC COMPANY                                                                                                                              
812   N3 01300000ATTN PAT GRANADO                                       4901 GREGG RD                                          
812   N4 01400000PICO RIVERA                   CA90660                                                
812   N1 01100000ST S/O FEIT ELECTRIC                                                                                                                                  
812   N1 01100000SN INDIANAPOLIS RLC                                                                                                                                   
812   N3 013000001390 SOUTH PERRY ROAD                                                                                         
812   N4 01400000PLAINFIELD                    IN46168                                                
812   CDD02200000RMD                                        00000000005EA                UCP100000000000000543ICL100000000000002715VINTAGE STYLE 60W EQUIVALENT SOFT WH                                                                                                                                                                                                                                    
812   LIN02300000                    SK1001411394                                      VPBPAT19/LED/12                                   PO29411239                                                                                                                                                                                                                                                                                                                                                                                                                                                                                                                                                                                                                                                                
812   00000000000                      CD               HDEPOT2                       0000299042923     000017503004060      000004060004060X X4064060604060                              P P                                        
812   BCD0020000020161026086153391             O 2000000000002746D        0000000000                                                                    ST 8615                                                
812   N9 00400000VR 000265438                                                                                                                                                                                                                                                                       
812   N9 00400000RZ Not Required                                                                                                                                                                                                                                                                    
812   N9 00400000MR 000060371                                                                                                                                                                                                                                                                       
812   N9 00400000DP 27                                                                                                                                                                                                                                                                              
812   N9 00400000L1 12                                                                                                                                                                                                                                                                              
812   N9 00400000ZZ 05                                                                                                                                                                                                                                                                              
812   N9 00400000MB 000211260                                                                                                                                                                                                                                                                       
812   FOB00800000PC                                                                                                                                                                                                                                                           
812   SHD009000000000000000000000000CT                                                                                                   
812   N1 01100000BT FEIT ELECTRIC COMPANY                                                                                                                              
812   N3 01300000ATTN PAT GRANADO                                       4901 GREGG RD                                          
812   N4 01400000PICO RIVERA                   CA90660                                                
812   N1 01100000ST FEIT ELECTRIC CO                                                                                                                                   
812   N1 01100000SN INDIANAPOLIS RLC                                                                                                                                   
812   N3 013000001390 SOUTH PERRY ROAD                                                                                         
812   N4 01400000PLAINFIELD                    IN46168                                                
812   CDD02200000RMD                                        00000000001EA                UCP400000000000274563ICL400000000000274563CE 1X1 LED EDGE-LIT, WHITE TRIM                                                                                                                                                                                                                                         
812   LIN02300000                    SK1001375553                                      VP74029/HD                                        PO15744170                                                                                                                                                                                                                                                                                                                                                                                                                                                                                                                                                                                                                                                                
812   00000000000                      CD               HDEPOT2                       0000299042923     000017502004060      000004060004060X X4064060604060                              P P                                        
812   BCD0020000020161026086153390             O 2000000000057174D        0000000000                                                                    ST 8615                                                
812   N9 00400000VR 000265438                                                                                                                                                                                                                                                                       
812   N9 00400000RZ Not Required                                                                                                                                                                                                                                                                    
812   N9 00400000MR 000060371                                                                                                                                                                                                                                                                       
812   N9 00400000DP 27                                                                                                                                                                                                                                                                              
812   N9 00400000L1 01                                                                                                                                                                                                                                                                              
812   N9 00400000ZZ 05                                                                                                                                                                                                                                                                              
812   N9 00400000MB 000211260                                                                                                                                                                                                                                                                       
812   FOB00800000PP                                                                                                                                                                                                                                                           
812   SHD009000000000000000000000000CT                                                                                                   
812   N1 01100000BT FEIT ELECTRIC COMPANY                                                                                                                              
812   N3 01300000ATTN PAT GRANADO                                       4901 GREGG RD                                          
812   N4 01400000PICO RIVERA                   CA90660                                                
812   N1 01100000ST FEIT ELECTRIC CO                                                                                                                                   
812   N1 01100000SN INDIANAPOLIS RLC                                                                                                                                   
812   N3 013000001390 SOUTH PERRY ROAD                                                                                         
812   N4 01400000PLAINFIELD                    IN46168                                                
812   CDD02200000RMD                                        00000000004EA                UCP400000000000298861ICL400000000001195444CE 15 IN ROUND LED EDGE-LIT, WHITE                                                                                                                                                                                                                                      
812   LIN02300000                    SK1001375539                                      VP74048/HD                                        PO15758398                                                                                                                                                                                                                                                                                                                                                                                                                                                                                                                                                                                                                                                                
812   CDD02200000RMD                                        00000000006ZZ                UCP300000000000029969ICL300000000000179814                                                                                                                                                                                                                                                                        
812   LIN02300000                    SK1001375539                                      VP74048/HD                                        PO15723990                                                                                                                                                                                                                                                                                                                                                                                                                                                                                                                                                                                                                                                                
812   CDD02200000RMD                                        00000000001EA                UCP400000000000603775ICL400000000000603775CE 1X4 LED EDGE-LIT, WHITE TRIM                                                                                                                                                                                                                                         
812   LIN02300000                    SK1001375544                                      VP74031/HD                                        PO15725731                                                                                                                                                                                                                                                                                                                                                                                                                                                                                                                                                                                                                                                                
812   CDD02200000RMD                                        00000000001ZZ                UCP300000000000060968ICL300000000000060968                                                                                                                                                                                                                                                                        
812   LIN02300000                    SK1001375544                                      VP74031/HD                                        PO15772132                                                                                                                                                                                                                                                                                                                                                                                                                                                                                                                                                                                                                                                                
812   CDD02200000RMD                                        00000000001EA                UCP400000000000274563ICL400000000000274563CE 1X1 LED EDGE-LIT, WHITE TRIM                                                                                                                                                                                                                                         
812   LIN02300000                    SK1001375553                                      VP74029/HD                                        PO15731156                                                                                                                                                                                                                                                                                                                                                                                                                                                                                                                                                                                                                                                                
812   CDD02200000RMD                                        00000000002EA                UCP400000000000617876ICL400000000001235752CE 2X2 LED EDGE-LIT(2IN1), WHITE                                                                                                                                                                                                                                        
812   LIN02300000                    SK1001375582                                      VP74032/HD                                        PO15795982                                                                                                                                                                                                                                                                                                                                                                                                                                                                                                                                                                                                                                                                
812   00000000000                      CD               HDEPOT2                       0000299042923     000017501004060      000004060004060X X4064060604060                              P P                                        
812   BCD0020000020161025066276415             O 2000000000000367D        0000000000                                                                    ST 6627                                                
812   N9 00400000VR 000265438                                                                                                                                                                                                                                                                       
812   N9 00400000DP 27                                                                                                                                                                                                                                                                              
812   N9 00400000L1 01                                                                                                                                                                                                                                                                              
812   N9 00400000ZZ 05                                                                                                                                                                                                                                                                              
812   N9 00400000MB 0000000000                                                                                                                                                                                                                                                                      
812   SHD009000000000000000000000000CT                                                                                                   
812   N1 01100000BT FEIT ELECTRIC COMPANY                                                                                                                              
812   N3 01300000ATTN PAT GRANADO                                       4901 GREGG RD                                          
812   N4 01400000PICO RIVERA                   CA90660                                                
812   N1 01100000SN DOWNEY                                                                                                                                             
812   N3 013000007121 FIRESTONE BLVD                                                                                           
812   N4 01400000DOWNEY                        CA90241                                                
812   CDD02200000RMD                                        00000000001EA                UCP400000000000036677ICL400000000000036677ES 14W BW SPIRAL CFL BULB 4PK                                                                                                                                                                                                                                           
812   LIN02300000                    SK160678                                          VPESL13T/BW/4/ESM                                                                                                                                                                                                                                                                                                                                                                                                                                                                                                                                                                                                                                                                                                           
812   00000000000                      CD               HDEPOT2                       0000299042923     000017500004060      000004060004060X X4064060604060                              P P                                        
812   BCD0020000020161026005422069             O 2000000000000189D        0000000000                                                                    ST 542                                                 
812   N9 00400000VR 000265438                                                                                                                                                                                                                                                                       
812   N9 00400000DP 27                                                                                                                                                                                                                                                                              
812   N9 00400000L1 01                                                                                                                                                                                                                                                                              
812   N9 00400000ZZ 05                                                                                                                                                                                                                                                                              
812   N9 00400000MB 0000000000                                                                                                                                                                                                                                                                      
812   SHD009000000000000000000000000CT                                                                                                   
812   N1 01100000BT FEIT ELECTRIC COMPANY                                                                                                                              
812   N3 01300000ATTN PAT GRANADO                                       4901 GREGG RD                                          
812   N4 01400000PICO RIVERA                   CA90660                                                
812   N1 01100000SN FT WORTH                                                                                                                                           
812   N3 013000004850 SW LOOP, 820 BL R                                                                                        
812   N4 01400000FORT WORTH                    TX76109                                                
812   CDD02200000RMD                                        00000000001EA                UCP400000000000018872ICL400000000000018872ES 9W DAYLIGHT SPIRAL CFL BULB 2PK                                                                                                                                                                                                                                      
812   LIN02300000                    SK252763                                          VPESL9TM/5K/2/ESM                                                                                                                                                                                                                                                                                                                                                                                                                                                                                                                                                                                                                                                                                                           
812   00000000000                      CD               HDEPOT2                       0000299042923     000017499004060      000004060004060X X4064060604060                              P P                                        
812   BCD0020000020161026000047472             O 2000000000004194D        0000000000                                                                    ST 8119                                                
812   N9 00400000VR 000265438                                                                                                                                                                                                                                                                       
812   N9 00400000MR 060082092                                                                                                                                                                                                                                                                       
812   N9 00400000DP 27                                                                                                                                                                                                                                                                              
812   N9 00400000L1 13                                                                                                                                                                                                                                                                              
812   N9 00400000ZZ 05                                                                                                                                                                                                                                                                              
812   N9 00400000MB 0000000000                                                                                                                                                                                                                                                                      
812   FOB00800000PC                                                                                                                                                                                                                                                           
812   SHD009000000000000000000000000CT                                                                                                   
812   N1 01100000BT FEIT ELECTRIC COMPANY                                                                                                                              
812   N3 01300000ATTN PAT GRANADO                                       4901 GREGG RD                                          
812   N4 01400000PICO RIVERA                   CA90660                                                
812   N1 01100000SN HOME DEPOT.COM                                                                                                                                     
812   N3 013000002455 PACES FERRY RD                                                                                           
812   N4 01400000ATLANTA                       GA30339                                                
812   CDD02200000RMD                                        00000000001EA                UCP200000000000004194ICL200000000000004194VINTAGE STYLE 40W EQUIVALENT SOFT WH                                                                                                                                                                                                                                    
812   LIN02300000                    SK1001411393                                      VPBPCFT/LED/12                                    PO33421247                                                                                                                                                                                                                                                                                                                                                                                                                                                                                                                                                                                                                                                                
