820   00000000000                      RA               HD820                         000501508500086   0087     004060      000004060004060X X4064060604060                              P P                                        
820   BPR00200000I 2000000000000533253CACHPBC                                                                                                                                                                                                 
820   TRN004000001 2001707367                                                                                                    
820   CUR00500000BY USD                                                                                                                   
820   REF00600000ZZ 2001707367                                                                                                                                                                                                                                                                                       
820   DTM0070000002020180427                                                
820   N1 00800000PE FEIT ELECTRIC CO                                                                                                                                   
820   REF01200000VR 71206105                                                                                                                                                                                                                                                                                         
820   N1 00800000PR HOME DEPOT U.S.A., INC.                                                                                                                            
820   ENT016000000000001                                                                                                                                                                                                                               
820   RMR04600000IV 101262741                                           200000000000000924920000000000000093422000000000000000093PT0000000000000000000
820   REF04800000PO 9012746234                                                                                                                                                                                                                                                                                       
820   DTM0490000099920180227                                                
820   RMR04600000IV 101262742                                           200000000000002101520000000000000212272000000000000000212PT0000000000000000000
820   REF04800000PO 9012745039                                                                                                                                                                                                                                                                                       
820   DTM0490000099920180227                                                
820   RMR04600000IV 101262743                                           100000000000000077920000000000000078692000000000000000079PT0000000000000000000
820   REF04800000PO 9012746828                                                                                                                                                                                                                                                                                       
820   DTM0490000099920180227                                                
820   RMR04600000IV 101262745                                           200000000000001063920000000000000107462000000000000000107PT0000000000000000000
820   REF04800000PO 9012746642                                                                                                                                                                                                                                                                                       
820   DTM0490000099920180227                                                
820   RMR04600000IV 101262746                                           200000000000000617120000000000000062332000000000000000062PT0000000000000000000
820   REF04800000PO 9012746345                                                                                                                                                                                                                                                                                       
820   DTM0490000099920180227                                                
820   RMR04600000IV 101262875                                           200000000000000984620000000000000099452000000000000000099PT0000000000000000000
820   REF04800000PO 9012736372                                                                                                                                                                                                                                                                                       
820   DTM0490000099920180227                                                
820   RMR04600000IV 101262877                                           200000000000000959420000000000000096912000000000000000097PT0000000000000000000
820   REF04800000PO 9012740852                                                                                                                                                                                                                                                                                       
820   DTM0490000099920180227                                                
820   RMR04600000IV 101262878                                           200000000000000816710000000000000008252000000000000000083PT0000000000000000000
820   REF04800000PO 9012742381                                                                                                                                                                                                                                                                                       
820   DTM0490000099920180227                                                
820   RMR04600000IV 101262879                                           200000000000000950520000000000000096012000000000000000096PT0000000000000000000
820   REF04800000PO 9012743045                                                                                                                                                                                                                                                                                       
820   DTM0490000099920180227                                                
820   RMR04600000IV 101262881                                           200000000000000799120000000000000080722000000000000000081PT0000000000000000000
820   REF04800000PO 9012748933                                                                                                                                                                                                                                                                                       
820   DTM0490000099920180227                                                
820   RMR04600000IV 101262728                                           100000000000000114620000000000000115762000000000000000116PT0000000000000000000
820   REF04800000PO 9012736616                                                                                                                                                                                                                                                                                       
820   DTM0490000099920180227                                                
820   RMR04600000IV 101262736                                           200000000000001352820000000000000136652000000000000000137PT0000000000000000000
820   REF04800000PO 9012743446                                                                                                                                                                                                                                                                                       
820   DTM0490000099920180227                                                
820   RMR04600000IV 101262739                                           200000000000000828820000000000000083722000000000000000084PT0000000000000000000
820   REF04800000PO 9012744469                                                                                                                                                                                                                                                                                       
820   DTM0490000099920180227                                                
820   RMR04600000IV 101262740                                           200000000000000826610000000000000008352000000000000000084PT0000000000000000000
820   REF04800000PO 9012746238                                                                                                                                                                                                                                                                                       
820   DTM0490000099920180227                                                
820   RMR04600000IV 101262724                                           200000000000001641320000000000000165792000000000000000166PT0000000000000000000
820   REF04800000PO 9012735582                                                                                                                                                                                                                                                                                       
820   DTM0490000099920180227                                                
820   RMR04600000IV 101262725                                           200000000000000918920000000000000092822000000000000000093PT0000000000000000000
820   REF04800000PO 9012739723                                                                                                                                                                                                                                                                                       
820   DTM0490000099920180227                                                
820   RMR04600000IV 101262726                                           200000000000000798320000000000000080642000000000000000081PT0000000000000000000
820   REF04800000PO 9012739481                                                                                                                                                                                                                                                                                       
820   DTM0490000099920180227                                                
820   RMR04600000IV 101262727                                           200000000000001250410000000000000012632000000000000000126PT0000000000000000000
820   REF04800000PO 9012736818                                                                                                                                                                                                                                                                                       
820   DTM0490000099920180227                                                
820   RMR04600000IV 101262882                                           200000000000000814920000000000000082252000000000000000076PT0000000000000000000
820   REF04800000PO 9012748418                                                                                                                                                                                                                                                                                       
820   DTM0490000099920180227                                                
820   RMR04600000IV 101262732                                           200000000000001853720000000000000187082000000000000000171PT0000000000000000000
820   REF04800000PO 9012744099                                                                                                                                                                                                                                                                                       
820   DTM0490000099920180227                                                
820   RMR04600000IV 101262896                                           200000000000000610620000000000000061682000000000000000062PT0000000000000000000
820   REF04800000PO 9012751135                                                                                                                                                                                                                                                                                       
820   DTM0490000099920180227                                                
820   RMR04600000IV 101262897                                           200000000000001577320000000000000159322000000000000000159PT0000000000000000000
820   REF04800000PO 9012753165                                                                                                                                                                                                                                                                                       
820   DTM0490000099920180227                                                
820   RMR04600000IV 101262898                                           200000000000000759920000000000000076762000000000000000077PT0000000000000000000
820   REF04800000PO 9012753002                                                                                                                                                                                                                                                                                       
820   DTM0490000099920180227                                                
820   RMR04600000IV 101262899                                           200000000000000942120000000000000095162000000000000000095PT0000000000000000000
820   REF04800000PO 9012753418                                                                                                                                                                                                                                                                                       
820   DTM0490000099920180227                                                
820   RMR04600000IV 101263114                                           000000000000000007820000000000000078792000000000000000079PT0000000000000000000
820   REF04800000PO 9012743120                                                                                                                                                                                                                                                                                       
820   DTM0490000099920180227                                                
820   RMR04600000IV 101262729                                           200000000000000765520000000000000077322000000000000000077PT0000000000000000000
820   REF04800000PO 9012740597                                                                                                                                                                                                                                                                                       
820   DTM0490000099920180227                                                
820   RMR04600000IV 101262730                                           200000000000000910420000000000000091962000000000000000092PT0000000000000000000
820   REF04800000PO 9012740579                                                                                                                                                                                                                                                                                       
820   DTM0490000099920180227                                                
820   RMR04600000IV 101262731                                           200000000000000791420000000000000079941000000000000000008PT0000000000000000000
820   REF04800000PO 9012740043                                                                                                                                                                                                                                                                                       
820   DTM0490000099920180227                                                
820   RMR04600000IV 101262883                                           000000000000000009220000000000000092932000000000000000093PT0000000000000000000
820   REF04800000PO 9012750174                                                                                                                                                                                                                                                                                       
820   DTM0490000099920180227                                                
820   RMR04600000IV 101262885                                           200000000000000933320000000000000094272000000000000000094PT0000000000000000000
820   REF04800000PO 9012749966                                                                                                                                                                                                                                                                                       
820   DTM0490000099920180227                                                
820   RMR04600000IV 101262886                                           200000000000000950120000000000000095972000000000000000096PT0000000000000000000
820   REF04800000PO 9012749859                                                                                                                                                                                                                                                                                       
820   DTM0490000099920180227                                                
820   RMR04600000IV 101262887                                           200000000000000801720000000000000080982000000000000000081PT0000000000000000000
820   REF04800000PO 9012749740                                                                                                                                                                                                                                                                                       
820   DTM0490000099920180227                                                
820   RMR04600000IV 101262888                                           200000000000002039720000000000000206032000000000000000206PT0000000000000000000
820   REF04800000PO 9012749718                                                                                                                                                                                                                                                                                       
820   DTM0490000099920180227                                                
820   RMR04600000IV 101262894                                           200000000000001910120000000000000192942000000000000000193PT0000000000000000000
820   REF04800000PO 9012751573                                                                                                                                                                                                                                                                                       
820   DTM0490000099920180227                                                
820   RMR04600000IV 101260854                                           100000000000000118610000000000000011981000000000000000012PT0000000000000000000
820   REF04800000PO 9012732581                                                                                                                                                                                                                                                                                       
820   DTM0490000099920180221                                                
820   RMR04600000IV 101260856                                           200000000000002708820000000000000273622000000000000000274PT0000000000000000000
820   REF04800000PO 9012732457                                                                                                                                                                                                                                                                                       
820   DTM0490000099920180221                                                
820   RMR04600000IV 101261394                                           200000000000001800720000000000000181892000000000000000182PT0000000000000000000
820   REF04800000PO 9012735765                                                                                                                                                                                                                                                                                       
820   DTM0490000099920180223                                                
820   RMR04600000IV 101259655                                           200000000000001001820000000000000101192000000000000000101PT0000000000000000000
820   REF04800000PO 9012722469                                                                                                                                                                                                                                                                                       
820   DTM0490000099920180219                                                
820   RMR04600000IV 101262150                                           200000000000000798320000000000000080642000000000000000081PT0000000000000000000
820   REF04800000PO 9012723606                                                                                                                                                                                                                                                                                       
820   DTM0490000099920180226                                                
820   RMR04600000IV 101257905                                           200000000000000767210000000000000007752000000000000000078PT0000000000000000000
820   REF04800000PO 9012710820                                                                                                                                                                                                                                                                                       
820   DTM0490000099920180214                                                
820   RMR04600000IV 101259660                                           200000000000001731510000000000000017492000000000000000175PT0000000000000000000
820   REF04800000PO 9012721636                                                                                                                                                                                                                                                                                       
820   DTM0490000099920180219                                                
820   RMR04600000IV 101262733                                           200000000000000889120000000000000089811000000000000000009PT0000000000000000000
820   REF04800000PO 9012743715                                                                                                                                                                                                                                                                                       
820   DTM0490000099920180227                                                
820   RMR04600000IV 101262735                                           200000000000002030720000000000000205122000000000000000205PT0000000000000000000
820   REF04800000PO 9012743512                                                                                                                                                                                                                                                                                       
820   DTM0490000099920180227                                                
820   RMR04600000IV 101262721                                           200000000000001551620000000000000156612000000000000000145PT0000000000000000000
820   REF04800000PO 9012736288                                                                                                                                                                                                                                                                                       
820   DTM0490000099920180227                                                
820   RMR04600000IV 101262722                                           200000000000000921620000000000000093092000000000000000093PT0000000000000000000
820   REF04800000PO 9012735973                                                                                                                                                                                                                                                                                       
820   DTM0490000099920180227                                                
820   RMR04600000IV 101262723                                           200000000000000784520000000000000079242000000000000000079PT0000000000000000000
820   REF04800000PO 9012735071                                                                                                                                                                                                                                                                                       
820   DTM0490000099920180227                                                
820   RMR04600000IV 101262895                                           100000000000000103320000000000000104342000000000000000104PT0000000000000000000
820   REF04800000PO 9012751366                                                                                                                                                                                                                                                                                       
820   DTM0490000099920180227                                                
