820   00000000000                      RA               HD820                         000500722500046   0047     004060      000004060004060X X4064060604060                              P P                                        
820   BPR00200000I 2000000000000045271CACHPBC                                                                                                                                                                                                 
820   TRN004000001 2000665066                                                                                                    
820   CUR00500000BY USD                                                                                                                   
820   REF00600000ZZ 2000665066                                                                                                                                                                                                                                                                                       
820   DTM0070000002020180305                                                
820   N1 00800000PE FEIT ELECTRIC COMPANY                                                                                                                              
820   REF01200000VR 265438                                                                                                                                                                                                                                                                                           
820   N1 00800000PR HOME DEPOT PUERTO RICO, INC.                                                                                                                       
820   ENT016000000000001                                                                                                                                                                                                                               
820   RMR04600000OS 64017578                                            200000000000000025w200000000000000025w0000000000000000000CM0000000000000000000
820   DTM0490000099920180226                                                
820   RMR04600000OS 64017601                                            200000000000000025w200000000000000025w0000000000000000000CM0000000000000000000
820   DTM0490000099920180226                                                
820   RMR04600000OS 64032923                                            200000000000000318s200000000000000318s0000000000000000000CM0000000000000000000
820   REF04800000PO RGA6403                                                                                                                                                                                                                                                                                          
820   DTM0490000099920180223                                                
820   RMR04600000OS 64122907                                            200000000000000222q200000000000000222q0000000000000000000CM0000000000000000000
820   DTM0490000099920180226                                                
820   RMR04600000OS 64115184                                            200000000000000119y200000000000000119y0000000000000000000CM0000000000000000000
820   DTM0490000099920180224                                                
820   RMR04600000OS 64122918                                            200000000000000119y200000000000000119y0000000000000000000CM0000000000000000000
820   DTM0490000099920180226                                                
820   RMR04600000OS 64122919                                            200000000000000119y200000000000000119y0000000000000000000CM0000000000000000000
820   DTM0490000099920180226                                                
820   RMR04600000OS 64059362                                            200000000000000119y200000000000000119y0000000000000000000CM0000000000000000000
820   DTM0490000099920180226                                                
820   RMR04600000OS 64059361                                            200000000000000119y200000000000000119y0000000000000000000CM0000000000000000000
820   DTM0490000099920180226                                                
820   RMR04600000OS 64122852                                            200000000000000119y200000000000000119y0000000000000000000CM0000000000000000000
820   DTM0490000099920180223                                                
820   RMR04600000OS 64122851                                            200000000000000119y200000000000000119y0000000000000000000CM0000000000000000000
820   DTM0490000099920180223                                                
820   RMR04600000OS 64059428                                            200000000000000029y200000000000000029y0000000000000000000CM0000000000000000000
820   DTM0490000099920180226                                                
820   RMR04600000OS 64059420                                            200000000000000031s200000000000000031s0000000000000000000CM0000000000000000000
820   DTM0490000099920180226                                                
820   RMR04600000OS 64122920                                            200000000000000119y200000000000000119y0000000000000000000CM0000000000000000000
820   DTM0490000099920180226                                                
820   RMR04600000OS 64122915                                            200000000000000119y200000000000000119y0000000000000000000CM0000000000000000000
820   DTM0490000099920180226                                                
820   RMR04600000OS 64122896                                            200000000000000119y200000000000000119y0000000000000000000CM0000000000000000000
820   DTM0490000099920180226                                                
820   RMR04600000OS 64122916                                            200000000000000119y200000000000000119y0000000000000000000CM0000000000000000000
820   DTM0490000099920180226                                                
820   RMR04600000OS 64122917                                            200000000000000119y200000000000000119y0000000000000000000CM0000000000000000000
820   DTM0490000099920180226                                                
820   RMR04600000OS 64122923                                            200000000000000119y200000000000000119y0000000000000000000CM0000000000000000000
820   DTM0490000099920180226                                                
820   RMR04600000OS 64122921                                            200000000000000119y200000000000000119y0000000000000000000CM0000000000000000000
820   DTM0490000099920180226                                                
820   RMR04600000OS 64122922                                            200000000000000119y200000000000000119y0000000000000000000CM0000000000000000000
820   DTM0490000099920180226                                                
820   RMR04600000OS 64017545                                            200000000000000027q200000000000000027q0000000000000000000CM0000000000000000000
820   DTM0490000099920180226                                                
820   RMR04600000OS 64017497                                            200000000000000029y200000000000000029y0000000000000000000CM0000000000000000000
820   DTM0490000099920180222                                                
820   RMR04600000OS 64088773                                            200000000000000025w200000000000000025w0000000000000000000CM0000000000000000000
820   DTM0490000099920180224                                                
820   RMR04600000OS 64033044                                            200000000000000014y200000000000000014y0000000000000000000CM0000000000000000000
820   DTM0490000099920180226                                                
820   RMR04600000OS 64017590                                            200000000000000072x200000000000000072x0000000000000000000CM0000000000000000000
820   DTM0490000099920180226                                                
820   RMR04600000CM 101187907                                           100000000000000147y100000000000000147y0000000000000000000CM0000000000000000000
820   NTE04700000AFATRADE DISCOUNT                                                                  
820   REF04800000PO 0001986434                                                                                                                                                                                                                                                                                       
820   DTM0490000099920171027                                                
820   RMR04600000IV 101187907                                           100000000000000862820000000000000870022000000000000000722PT0000000000000000000
820   REF04800000PO 0001986434                                                                                                                                                                                                                                                                                       
820   DTM0490000099920171027                                                
820   00000000000                      RA               HD820                         000500721500045   0046     004060      000004060004060X X4064060604060                              P P                                        
820   BPR00200000I 2000000000000018942CACHPBC                                                                                                                                                                                                 
820   TRN004000001 2000076321                                                                                                    
820   CUR00500000BY USD                                                                                                                   
820   REF00600000ZZ 2000076321                                                                                                                                                                                                                                                                                       
820   DTM0070000002020180228                                                
820   N1 00800000PE FEIT ELECTRIC CO                                                                                                                                   
820   REF01200000VR 71206105                                                                                                                                                                                                                                                                                         
820   N1 00800000PR HOME DEPOT U.S.A., INC.                                                                                                                            
820   ENT016000000000001                                                                                                                                                                                                                               
820   RMR04600000IV 101234522                                           200000000000001894220000000000000191332000000000000000191PT0000000000000000000
820   REF04800000PO 9012561987                                                                                                                                                                                                                                                                                       
820   DTM0490000099920171229                                                
