820   00000000000                      RA               HD820                         000503568500182   0183     004060      000004060004060X X4064060604060                              P P                                        
820   BPR00200000I 2000000000000829115CACHPBC                                                                                                                                                                                                 
820   TRN004000001 2000100675                                                                                                    
820   CUR00500000BY USD                                                                                                                   
820   REF00600000ZZ 2000100675                                                                                                                                                                                                                                                                                       
820   DTM0070000002020180926                                                
820   N1 00800000PE FEIT ELECTRIC COMPANY                                                                                                                              
820   REF01200000VR 265438                                                                                                                                                                                                                                                                                           
820   N1 00800000PR HOME DEPOT PUERTO RICO, INC.                                                                                                                       
820   ENT016000000000001                                                                                                                                                                                                                               
820   RMR04600000OS 64099204                                            200000000000000119y200000000000000119y0000000000000000000CM0000000000000000000
820   DTM0490000099920180917                                                
820   RMR04600000OS 64084794                                            200000000000000100t200000000000000100t0000000000000000000CM0000000000000000000
820   DTM0490000099920180917                                                
820   RMR04600000OS 64084795                                            200000000000000100t200000000000000100t0000000000000000000CM0000000000000000000
820   DTM0490000099920180917                                                
820   RMR04600000OS 64054159                                            200000000000000022r200000000000000022r0000000000000000000CM0000000000000000000
820   DTM0490000099920180918                                                
820   RMR04600000OS 64054160                                            200000000000000119y200000000000000119y0000000000000000000CM0000000000000000000
820   DTM0490000099920180918                                                
820   RMR04600000OS 64022679                                            200000000000000013w200000000000000013w0000000000000000000CM0000000000000000000
820   DTM0490000099920180913                                                
820   RMR04600000OS 64012865                                            200000000000000012s200000000000000012s0000000000000000000CM0000000000000000000
820   DTM0490000099920180914                                                
820   RMR04600000OS 64075902                                            200000000000000027q200000000000000027q0000000000000000000CM0000000000000000000
820   DTM0490000099920180919                                                
820   RMR04600000OS 64030724                                            200000000000000012s200000000000000012s0000000000000000000CM0000000000000000000
820   DTM0490000099920180917                                                
820   RMR04600000OS 64084815                                            200000000000000027q200000000000000027q0000000000000000000CM0000000000000000000
820   DTM0490000099920180917                                                
820   RMR04600000OS 64084743                                            200000000000000100t200000000000000100t0000000000000000000CM0000000000000000000
820   DTM0490000099920180914                                                
820   RMR04600000IV 101336696                                           200000000000006373520000000000000643792000000000000000644PT0000000000000000000
820   REF04800000PO 0011981573                                                                                                                                                                                                                                                                                       
820   DTM0490000099920180724                                                
820   RMR04600000IV 101336703                                           200000000000006373520000000000000643792000000000000000644PT0000000000000000000
820   REF04800000PO 0003981573                                                                                                                                                                                                                                                                                       
820   DTM0490000099920180724                                                
820   RMR04600000IV 101336684                                           200000000000004533820000000000000457962000000000000000458PT0000000000000000000
820   REF04800000PO 0005981534                                                                                                                                                                                                                                                                                       
820   DTM0490000099920180724                                                
820   RMR04600000IV 101336692                                           200000000000006373520000000000000643792000000000000000644PT0000000000000000000
820   REF04800000PO 0005981573                                                                                                                                                                                                                                                                                       
820   DTM0490000099920180724                                                
820   RMR04600000IV 101336686                                           200000000000004209320000000000000425182000000000000000425PT0000000000000000000
820   REF04800000PO 0001981534                                                                                                                                                                                                                                                                                       
820   DTM0490000099920180724                                                
820   RMR04600000IV 101336649                                           200000000000002337120000000000000236072000000000000000236PT0000000000000000000
820   REF04800000PO 0012981450                                                                                                                                                                                                                                                                                       
820   DTM0490000099920180724                                                
820   RMR04600000IV 101336694                                           200000000000006373520000000000000643792000000000000000644PT0000000000000000000
820   REF04800000PO 0008981573                                                                                                                                                                                                                                                                                       
820   DTM0490000099920180724                                                
820   RMR04600000IV 101336697                                           200000000000006373520000000000000643792000000000000000644PT0000000000000000000
820   REF04800000PO 0012981573                                                                                                                                                                                                                                                                                       
820   DTM0490000099920180724                                                
820   RMR04600000IV 101336695                                           200000000000006373520000000000000643792000000000000000644PT0000000000000000000
820   REF04800000PO 0009981573                                                                                                                                                                                                                                                                                       
820   DTM0490000099920180724                                                
820   RMR04600000IV 101336683                                           200000000000004171420000000000000421352000000000000000421PT0000000000000000000
820   REF04800000PO 0007981534                                                                                                                                                                                                                                                                                       
820   DTM0490000099920180724                                                
820   RMR04600000IV 101336789                                           200000000000003982320000000000000402252000000000000000402PT0000000000000000000
820   REF04800000PO 0002981534                                                                                                                                                                                                                                                                                       
820   DTM0490000099920180724                                                
820   RMR04600000IV 101336681                                           100000000000000461920000000000000466572000000000000000467PT0000000000000000000
820   REF04800000PO 0009981534                                                                                                                                                                                                                                                                                       
820   DTM0490000099920180724                                                
820   RMR04600000IV 101336689                                           200000000000006373520000000000000643792000000000000000644PT0000000000000000000
820   REF04800000PO 0001981573                                                                                                                                                                                                                                                                                       
820   DTM0490000099920180724                                                
820   RMR04600000IV 101336688                                           200000000000006373520000000000000643792000000000000000644PT0000000000000000000
820   REF04800000PO 0007981573                                                                                                                                                                                                                                                                                       
820   DTM0490000099920180724                                                
820   RMR04600000IV 101336651                                           200000000000004303820000000000000434732000000000000000435PT0000000000000000000
820   REF04800000PO 0011981450                                                                                                                                                                                                                                                                                       
820   DTM0490000099920180724                                                
820   RMR04600000IV 101336685                                           200000000000004422520000000000000446722000000000000000447PT0000000000000000000
820   REF04800000PO 0003981534                                                                                                                                                                                                                                                                                       
820   DTM0490000099920180724                                                
820   00000000000                      RA               HD820                         000503567500181   0182     004060      000004060004060X X4064060604060                              P P                                        
820   BPR00200000I 2000000000000266487CACHPBC                                                                                                                                                                                                 
820   TRN004000001 2004010202                                                                                                    
820   CUR00500000BY USD                                                                                                                   
820   REF00600000ZZ 2004010202                                                                                                                                                                                                                                                                                       
820   DTM0070000002020180921                                                
820   N1 00800000PE FEIT ELECTRIC CO                                                                                                                                   
820   REF01200000VR 71206105                                                                                                                                                                                                                                                                                         
820   N1 00800000PR HOME DEPOT U.S.A., INC.                                                                                                                            
820   ENT016000000000001                                                                                                                                                                                                                               
820   RMR04600000IV 101337145                                           200000000000000812720000000000000082032000000000000000076PT0000000000000000000
820   REF04800000PO 9013186464                                                                                                                                                                                                                                                                                       
820   DTM0490000099920180724                                                
820   RMR04600000IV 101337147                                           200000000000000947820000000000000095742000000000000000096PT0000000000000000000
820   REF04800000PO 9013186014                                                                                                                                                                                                                                                                                       
820   DTM0490000099920180724                                                
820   RMR04600000IV 101337149                                           200000000000000986620000000000000099561000000000000000009PT0000000000000000000
820   REF04800000PO 9013186850                                                                                                                                                                                                                                                                                       
820   DTM0490000099920180724                                                
820   RMR04600000IV 101337129                                           200000000000000777520000000000000078542000000000000000079PT0000000000000000000
820   REF04800000PO 9013184442                                                                                                                                                                                                                                                                                       
820   DTM0490000099920180724                                                
820   RMR04600000IV 101337130                                           200000000000000795720000000000000080371000000000000000008PT0000000000000000000
820   REF04800000PO 9013184223                                                                                                                                                                                                                                                                                       
820   DTM0490000099920180724                                                
820   RMR04600000IV 101337132                                           200000000000000798420000000000000080652000000000000000081PT0000000000000000000
820   REF04800000PO 9013186163                                                                                                                                                                                                                                                                                       
820   DTM0490000099920180724                                                
820   RMR04600000IV 101337133                                           200000000000001139420000000000000115012000000000000000107PT0000000000000000000
820   REF04800000PO 9013185387                                                                                                                                                                                                                                                                                       
820   DTM0490000099920180724                                                
820   RMR04600000IV 101337134                                           200000000000000788920000000000000079691000000000000000008PT0000000000000000000
820   REF04800000PO 9013185894                                                                                                                                                                                                                                                                                       
820   DTM0490000099920180724                                                
820   RMR04600000IV 101337135                                           200000000000002109620000000000000213092000000000000000213PT0000000000000000000
820   REF04800000PO 9013186568                                                                                                                                                                                                                                                                                       
820   DTM0490000099920180724                                                
820   RMR04600000IV 101337143                                           100000000000000114820000000000000115962000000000000000116PT0000000000000000000
820   REF04800000PO 9013186368                                                                                                                                                                                                                                                                                       
820   DTM0490000099920180724                                                
820   RMR04600000IV 101337137                                           100000000000000098910000000000000009990000000000000000001PT0000000000000000000
820   REF04800000PO 9013186064                                                                                                                                                                                                                                                                                       
820   DTM0490000099920180724                                                
820   RMR04600000IV 101337139                                           200000000000002296520000000000000231972000000000000000232PT0000000000000000000
820   REF04800000PO 9013185370                                                                                                                                                                                                                                                                                       
820   DTM0490000099920180724                                                
820   RMR04600000IV 101337141                                           200000000000000769520000000000000077732000000000000000078PT0000000000000000000
820   REF04800000PO 9013186176                                                                                                                                                                                                                                                                                       
820   DTM0490000099920180724                                                
820   RMR04600000IV 101335314                                           100000000000000178510000000000000018031000000000000000018PT0000000000000000000
820   REF04800000PO 9013180750                                                                                                                                                                                                                                                                                       
820   DTM0490000099920180723                                                
820   RMR04600000IV 101335315                                           200000000000000663520000000000000067022000000000000000067PT0000000000000000000
820   REF04800000PO 9013181420                                                                                                                                                                                                                                                                                       
820   DTM0490000099920180723                                                
820   RMR04600000IV 101335316                                           200000000000000910920000000000000091932000000000000000084PT0000000000000000000
820   REF04800000PO 9013181541                                                                                                                                                                                                                                                                                       
820   DTM0490000099920180723                                                
820   RMR04600000IV 101336344                                           200000000000001098720000000000000110882000000000000000101PT0000000000000000000
820   REF04800000PO 9013155024                                                                                                                                                                                                                                                                                       
820   DTM0490000099920180723                                                
820   RMR04600000IV 101336375                                           200000000000000896720000000000000090582000000000000000091PT0000000000000000000
820   REF04800000PO 9013181505                                                                                                                                                                                                                                                                                       
820   DTM0490000099920180723                                                
820   RMR04600000IV 101336387                                           200000000000000857220000000000000086592000000000000000087PT0000000000000000000
820   REF04800000PO 9013183554                                                                                                                                                                                                                                                                                       
820   DTM0490000099920180723                                                
820   RMR04600000IV 101336397                                           100000000000000075520000000000000076262000000000000000076PT0000000000000000000
820   REF04800000PO 9013184038                                                                                                                                                                                                                                                                                       
820   DTM0490000099920180723                                                
820   RMR04600000IV 101337151                                           200000000000001448620000000000000146322000000000000000146PT0000000000000000000
820   REF04800000PO 9013186712                                                                                                                                                                                                                                                                                       
820   DTM0490000099920180724                                                
820   RMR04600000IV 101337153                                           200000000000001065120000000000000107492000000000000000098PT0000000000000000000
820   REF04800000PO 9013186784                                                                                                                                                                                                                                                                                       
820   DTM0490000099920180724                                                
820   RMR04600000IV 101337155                                           000000000000000008420000000000000084782000000000000000078PT0000000000000000000
820   REF04800000PO 9013186792                                                                                                                                                                                                                                                                                       
820   DTM0490000099920180724                                                
820   RMR04600000IV 101337157                                           100000000000000110720000000000000111742000000000000000104PT0000000000000000000
820   REF04800000PO 9013186793                                                                                                                                                                                                                                                                                       
820   DTM0490000099920180724                                                
820   RMR04600000IV 101337159                                           200000000000000861420000000000000086932000000000000000079PT0000000000000000000
820   REF04800000PO 9013186744                                                                                                                                                                                                                                                                                       
820   DTM0490000099920180724                                                
