812   00000000000                      CD               HDEPOT2                       0000297752889     000017200004060      000004060004060X X4064060604060                              P P                                        
812   BCD00200000201610030                     A 2000000002187201D20160913100971573                                   2016090612933658                  ST 5642                                                
812   N9 00400000VR 000265438                                                                                                                                                                                                                                                                       
812   N9 00400000VV GNQJJN                                                                                                                                                                                                                                                                          
812   N9 00400000RV 564221528                                                                                                                                                                                                                                                                       
812   N9 00400000DP 27                                                                                                                                                                                                                                                                              
812   N9 00400000FR 10131403                                                                                                                                                                                                                                                                        
812   FOB00800000CC                                                                                    ZZZDEDESTINATION                                                                                                                                                       
812   SHD009000000000000000000003025CT                                              ZZ UNKNOWN                                           
812   N1 01100000BT FEIT ELECTRIC COMPANY                                                                                                                              
812   N3 01300000ATTN PAT GRANADO                                       4901 GREGG RD                                          
812   N4 01400000PICO RIVERA                   CA90660                                                
812   CDD0220000024D                    2000000002178391                                                                                                                                                                                                                                                                                                                                                   
812   CDD0220000006D                    1000000000000336    00000000012ZZ                UCP100000000000000028INV100000000000000028                                                                                                                                                                                                                                                                        
812   LIN02300000                    SK369205                                          VPBPQ100T4/J                                                                                                                                                                                                                                                                                                                                                                                                                                                                                                                                                                                                                                                                                                                
812   CDD0220000006D                    1000000000000545    00000000001ZZ                UCP100000000000000545INV100000000000000545                                                                                                                                                                                                                                                                        
812   LIN02300000                    SK1001797737                                      VPLEDR56927M                                                                                                                                                                                                                                                                                                                                                                                                                                                                                                                                                                                                                                                                                                                
812   00000000000                      CD               HDEPOT2                       0000297742888     000017199004060      000004060004060X X4064060604060                              P P                                        
812   BCD0020000020161002066296528             O 2000000000000484D        0000000000                                                                    ST 6629                                                
812   N9 00400000VR 000265438                                                                                                                                                                                                                                                                       
812   N9 00400000DP 27                                                                                                                                                                                                                                                                              
812   N9 00400000L1 01                                                                                                                                                                                                                                                                              
812   N9 00400000ZZ 05                                                                                                                                                                                                                                                                              
812   N9 00400000MB 0000000000                                                                                                                                                                                                                                                                      
812   SHD009000000000000000000000000CT                                                                                                   
812   N1 01100000BT FEIT ELECTRIC COMPANY                                                                                                                              
812   N3 01300000ATTN PAT GRANADO                                       4901 GREGG RD                                          
812   N4 01400000PICO RIVERA                   CA90660                                                
812   N1 01100000SN MONROVIA                                                                                                                                           
812   N3 013000001625 S MOUNTAIN AVE                                                                                           
812   N4 01400000MONROVIA                      CA91016                                                
812   CDD02200000RMD                                        00000000001EA                UCP300000000000004842ICL300000000000004842ES 19W SOFT WHITE SPIRAL BULB 4PK                                                                                                                                                                                                                                       
812   LIN02300000                    SK405101                                          VPESL18TM/4/ESM                                                                                                                                                                                                                                                                                                                                                                                                                                                                                                                                                                                                                                                                                                             
812   00000000000                      CD               HDEPOT2                       0000297742888     000017198004060      000004060004060X X4064060604060                              P P                                        
812   BCD0020000020160929012421432             O 1000000000002275D        0000000000                                                                    ST 8119                                                
812   N9 00400000VR 000265438                                                                                                                                                                                                                                                                       
812   N9 00400000RZ 65994661                                                                                                                                                                                                                                                                        
812   N9 00400000MR 060082092                                                                                                                                                                                                                                                                       
812   N9 00400000DP 27                                                                                                                                                                                                                                                                              
812   N9 00400000L1 02                                                                                                                                                                                                                                                                              
812   N9 00400000ZZ 05                                                                                                                                                                                                                                                                              
812   N9 00400000MB 0000000000                                                                                                                                                                                                                                                                      
812   FOB00800000CC                                                                                                                                                                                                                                                           
812   SHD009000000000000000000000000CT                                        O                                                          
812   N1 01100000BT FEIT ELECTRIC COMPANY                                                                                                                              
812   N3 01300000ATTN PAT GRANADO                                       4901 GREGG RD                                          
812   N4 01400000PICO RIVERA                   CA90660                                                
812   N1 01100000ST Feit Electric Company, I                                                                                                                           
812   N3 013000004901 Gregg Road                                                                                               
812   N4 01400000Pico Rivera                   CA90660                                                
812   N1 01100000SN HOME DEPOT.COM                                                                                                                                     
812   N3 013000002455 PACES FERRY RD                                                                                           
812   N4 01400000ATLANTA                       GA30339                                                
812   CDD02200000RMD                                        00000000010EA                UCP200000000000002275ICL10000000000000227560-WATT INCANDESCENT ST19 VINTAGE ST                                                                                                                                                                                                                                    
812   LIN02300000                    SK1002083059                                      VPBP60ST19/RP/6                                   PO23495416                                                                                                                                                                                                                                                                                                                                                                                                                                                                                                                                                                                                                                                                
812   00000000000                      CD               HDEPOT2                       0000297742888     000017197004060      000004060004060X X4064060604060                              P P                                        
812   BCD0020000020161002004781339             O 0000000000000011D        0000000000                                                                    ST 478                                                 
812   N9 00400000VR 000265438                                                                                                                                                                                                                                                                       
812   N9 00400000DP 27                                                                                                                                                                                                                                                                              
812   N9 00400000L1 01                                                                                                                                                                                                                                                                              
812   N9 00400000ZZ 05                                                                                                                                                                                                                                                                              
812   N9 00400000MB 0000000000                                                                                                                                                                                                                                                                      
812   SHD009000000000000000000000000CT                                                                                                   
812   N1 01100000BT FEIT ELECTRIC COMPANY                                                                                                                              
812   N3 01300000ATTN PAT GRANADO                                       4901 GREGG RD                                          
812   N4 01400000PICO RIVERA                   CA90660                                                
812   N1 01100000SN MARANA (NW TUCSON)                                                                                                                                 
812   N3 013000003925 W COSTCO DR                                                                                              
812   N4 01400000TUCSON                        AZ85741                                                
812   CDD02200000RMD                                        00000000003EA                UCP400000000000036677ICL400000000000110031ES 14W BW SPIRAL CFL BULB 4PK                                                                                                                                                                                                                                           
812   LIN02300000                    SK160678                                          VPESL13T/BW/4/ESM                                                                                                                                                                                                                                                                                                                                                                                                                                                                                                                                                                                                                                                                                                           
812   00000000000                      CD               HDEPOT2                       0000297742888     000017196004060      000004060004060X X4064060604060                              P P                                        
812   BCD0020000020161002000026028             O 1000000000000543D        0000000000                                                                    ST 8119                                                
812   N9 00400000VR 000265438                                                                                                                                                                                                                                                                       
812   N9 00400000MR 060082092                                                                                                                                                                                                                                                                       
812   N9 00400000DP 27                                                                                                                                                                                                                                                                              
812   N9 00400000L1 14                                                                                                                                                                                                                                                                              
812   N9 00400000ZZ 05                                                                                                                                                                                                                                                                              
812   N9 00400000MB 0000000000                                                                                                                                                                                                                                                                      
812   FOB00800000PC                                                                                                                                                                                                                                                           
812   SHD009000000000000000000000000CT                                                                                                   
812   N1 01100000BT FEIT ELECTRIC COMPANY                                                                                                                              
812   N3 01300000ATTN PAT GRANADO                                       4901 GREGG RD                                          
812   N4 01400000PICO RIVERA                   CA90660                                                
812   N1 01100000SN HOME DEPOT.COM                                                                                                                                     
812   N3 013000002455 PACES FERRY RD                                                                                           
812   N4 01400000ATLANTA                       GA30339                                                
812   CDD02200000RMD                                        00000000001EA                UCP100000000000000543ICL100000000000000543VINTAGE STYLE 60W EQUIVALENT SOFT WH                                                                                                                                                                                                                                    
812   LIN02300000                    SK1001411394                                      VPBPAT19/LED/12                                   PO17415345                                                                                                                                                                                                                                                                                                                                                                                                                                                                                                                                                                                                                                                                
