820   00000000000                      RA               HD820                         000506555500311   0312     004060      000004060004060X X4064060604060                              P P                                        
820   BPR00200000I 2000000000001334947CACHPBC                                                                                                                                                                                                 
820   TRN004000001 2000731140                                                                                                    
820   CUR00500000BY USD                                                                                                                   
820   REF00600000ZZ 2000731140                                                                                                                                                                                                                                                                                       
820   DTM0070000002020161214                                                
820   N1 00800000PE FEIT ELECTRIC COMPANY                                                                                                                              
820   REF01200000VR 265438                                                                                                                                                                                                                                                                                           
820   N1 00800000PR HOME DEPOT PUERTO RICO, INC.                                                                                                                       
820   ENT016000000000001                                                                                                                                                                                                                               
820   RMR04600000IV 100984269                                           200000000000014575620000000000001472282000000000000001472PT0000000000000000000
820   REF04800000PO 0007983610                                                                                                                                                                                                                                                                                       
820   DTM0490000099920161011                                                
820   RMR04600000IV 100984265                                           200000000000015375920000000000001553122000000000000001553PT0000000000000000000
820   REF04800000PO 0003983610                                                                                                                                                                                                                                                                                       
820   DTM0490000099920161011                                                
820   RMR04600000IV 100984263                                           200000000000010980620000000000001109152000000000000001109PT0000000000000000000
820   REF04800000PO 0001983610                                                                                                                                                                                                                                                                                       
820   DTM0490000099920161011                                                
820   RMR04600000IV 100985688                                           200000000000031129420000000000003144382000000000000003144PT0000000000000000000
820   REF04800000PO 0011983508                                                                                                                                                                                                                                                                                       
820   DTM0490000099920161011                                                
820   RMR04600000IV 100985694                                           200000000000018006720000000000001818862000000000000001819PT0000000000000000000
820   REF04800000PO 0008983610                                                                                                                                                                                                                                                                                       
820   DTM0490000099920161011                                                
820   RMR04600000IV 100984232                                           200000000000014043220000000000001418512000000000000001419PT0000000000000000000
820   REF04800000PO 0012983508                                                                                                                                                                                                                                                                                       
820   DTM0490000099920161010                                                
820   RMR04600000IV 100984264                                           200000000000020677620000000000002088652000000000000002089PT0000000000000000000
820   REF04800000PO 0002983610                                                                                                                                                                                                                                                                                       
820   DTM0490000099920161011                                                
820   RMR04600000IV 100984271                                           200000000000003832620000000000000387132000000000000000387PT0000000000000000000
820   REF04800000PO 0009983610                                                                                                                                                                                                                                                                                       
820   DTM0490000099920161011                                                
820   RMR04600000IV 100984267                                           200000000000004873120000000000000492232000000000000000492PT0000000000000000000
820   REF04800000PO 0005983610                                                                                                                                                                                                                                                                                       
820   DTM0490000099920161011                                                
820   00000000000                      RA               HD820                         000506554500310   0311     004060      000004060004060X X4064060604060                              P P                                        
820   BPR00200000I 2000000000000082545CACHPBC                                                                                                                                                                                                 
820   TRN004000001 2004688879                                                                                                    
820   CUR00500000BY USD                                                                                                                   
820   REF00600000ZZ 2004688879                                                                                                                                                                                                                                                                                       
820   DTM0070000002020161209                                                
820   N1 00800000PE FEIT ELECTRIC CO                                                                                                                                   
820   REF01200000VR 71206105                                                                                                                                                                                                                                                                                         
820   N1 00800000PR HOME DEPOT U.S.A., INC.                                                                                                                            
820   ENT016000000000001                                                                                                                                                                                                                               
820   RMR04600000IV 100985273                                           200000000000000766420000000000000077412000000000000000077PT0000000000000000000
820   REF04800000PO 9011214919                                                                                                                                                                                                                                                                                       
820   DTM0490000099920161011                                                
820   RMR04600000IV 100985274                                           200000000000001144620000000000000115622000000000000000116PT0000000000000000000
820   REF04800000PO 9011213989                                                                                                                                                                                                                                                                                       
820   DTM0490000099920161011                                                
820   RMR04600000IV 100985275                                           200000000000000306520000000000000030962000000000000000031PT0000000000000000000
820   REF04800000PO 9011212996                                                                                                                                                                                                                                                                                       
820   DTM0490000099920161011                                                
820   RMR04600000IV 100985276                                           200000000000000958310000000000000009682000000000000000097PT0000000000000000000
820   REF04800000PO 9011212423                                                                                                                                                                                                                                                                                       
820   DTM0490000099920161011                                                
820   RMR04600000IV 100985293                                           200000000000001022520000000000000103282000000000000000103PT0000000000000000000
820   REF04800000PO 9011217550                                                                                                                                                                                                                                                                                       
820   DTM0490000099920161011                                                
820   RMR04600000IV 100985297                                           200000000000000958220000000000000096792000000000000000097PT0000000000000000000
820   REF04800000PO 9011215701                                                                                                                                                                                                                                                                                       
820   DTM0490000099920161011                                                
820   RMR04600000IV 100985266                                           100000000000000091520000000000000092422000000000000000092PT0000000000000000000
820   REF04800000PO 9011205213                                                                                                                                                                                                                                                                                       
820   DTM0490000099920161011                                                
820   RMR04600000IV 100985268                                           200000000000001341410000000000000013552000000000000000136PT0000000000000000000
820   REF04800000PO 9011205390                                                                                                                                                                                                                                                                                       
820   DTM0490000099920161011                                                
820   RMR04600000IV 100985271                                           200000000000000841620000000000000085012000000000000000085PT0000000000000000000
820   REF04800000PO 9011211252                                                                                                                                                                                                                                                                                       
820   DTM0490000099920161011                                                
