820   00000000000                      RA               HD820                         000500756500047   0048     004060      000004060004060X X4064060604060                              P P                                        
820   BPR00200000I 2000000000000007203CACHPBC                                                                                                                                                                                                 
820   TRN004000001 2000058234                                                                                                    
820   CUR00500000BY USD                                                                                                                   
820   REF00600000ZZ 2000058234                                                                                                                                                                                                                                                                                       
820   DTM0070000002020180302                                                
820   N1 00800000PE FEIT ELECTRIC CO                                                                                                                                   
820   REF01200000VR 71206105                                                                                                                                                                                                                                                                                         
820   N1 00800000PR HOME DEPOT U.S.A., INC.                                                                                                                            
820   ENT016000000000001                                                                                                                                                                                                                               
820   RMR04600000IV 101232434                                           200000000000000720320000000000000072762000000000000000073PT0000000000000000000
820   REF04800000PO 9012555666                                                                                                                                                                                                                                                                                       
820   DTM0490000099920171229                                                
