812   00000000000                      CD               HDEPOT2                       0000307013121     000019346004060      000004060004060X X4064060604060                              P P                                        
812   BCD00200000201703220                     A 1000000000000568D20170308101065001                                   2017030226936796                  ST 5085                                                
812   N9 00400000VR 000265438                                                                                                                                                                                                                                                                       
812   N9 00400000VV XGTJTN                                                                                                                                                                                                                                                                          
812   N9 00400000RV 508599509                                                                                                                                                                                                                                                                       
812   N9 00400000DP 27                                                                                                                                                                                                                                                                              
812   N9 00400000FR 0870068995                                                                                                                                                                                                                                                                      
812   FOB00800000CC                                                                                    ZZZDEDESTINATION                                                                                                                                                       
812   SHD009000000000000000000000215CT                                              ZZ UNKNOWN                                           
812   N1 01100000BT FEIT ELECTRIC COMPANY                                                                                                                              
812   N3 01300000ATTN PAT GRANADO                                       4901 GREGG RD                                          
812   N4 01400000PICO RIVERA                   CA90660                                                
812   CDD0220000024D                    1000000000000568                                                                                                                                                                                                                                                                                                                                                   
812   00000000000                      CD               HDEPOT2                       0000307013121     000019345004060      000004060004060X X4064060604060                              P P                                        
812   BCD00200000201703220                     A 2000000000002842D20170308101064990                                   2017030147917352                  ST 5034                                                
812   N9 00400000VR 000265438                                                                                                                                                                                                                                                                       
812   N9 00400000VV XGTJSJ                                                                                                                                                                                                                                                                          
812   N9 00400000RV 503478135                                                                                                                                                                                                                                                                       
812   N9 00400000DP 27                                                                                                                                                                                                                                                                              
812   N9 00400000FR 0870068992                                                                                                                                                                                                                                                                      
812   FOB00800000CC                                                                                    ZZZDEDESTINATION                                                                                                                                                       
812   SHD009000000000000000000000064CT                                              ZZ UNKNOWN                                           
812   N1 01100000BT FEIT ELECTRIC COMPANY                                                                                                                              
812   N3 01300000ATTN PAT GRANADO                                       4901 GREGG RD                                          
812   N4 01400000PICO RIVERA                   CA90660                                                
812   CDD0220000024D                    2000000000002842                                                                                                                                                                                                                                                                                                                                                   
812   00000000000                      CD               HDEPOT2                       0000307013121     000019344004060      000004060004060X X4064060604060                              P P                                        
812   BCD00200000201703220                     A 2000000000000001D20170307101064150                                   2017030153996550                  ST 8453                                                
812   N9 00400000VR 000265438                                                                                                                                                                                                                                                                       
812   N9 00400000VV XFXDHD                                                                                                                                                                                                                                                                          
812   N9 00400000RV 845394932                                                                                                                                                                                                                                                                       
812   N9 00400000DP 27                                                                                                                                                                                                                                                                              
812   N9 00400000FR P2842450                                                                                                                                                                                                                                                                        
812   FOB00800000CC                                                                                    ZZZDEDESTINATION                                                                                                                                                       
812   SHD009000000000000000000000000CT                                              ZZ UNITED PARCEL SERVICE I                           
812   N1 01100000BT FEIT ELECTRIC COMPANY                                                                                                                              
812   N3 01300000ATTN PAT GRANADO                                       4901 GREGG RD                                          
812   N4 01400000PICO RIVERA                   CA90660                                                
812   CDD0220000024D                    2000000000000001                                                                                                                                                                                                                                                                                                                                                   
812   00000000000                      CD               HDEPOT2                       0000307013121     000019343004060      000004060004060X X4064060604060                              P P                                        
812   BCD00200000201703220                     A 1000000000010594D20170221101057355                                   2017021538931292                  ST 5520                                                
812   N9 00400000VR 000265438                                                                                                                                                                                                                                                                       
812   N9 00400000VV WSRZGB                                                                                                                                                                                                                                                                          
812   N9 00400000RV 552060610                                                                                                                                                                                                                                                                       
812   N9 00400000DP 27                                                                                                                                                                                                                                                                              
812   N9 00400000FR 0870067781                                                                                                                                                                                                                                                                      
812   FOB00800000CC                                                                                    ZZZDEDESTINATION                                                                                                                                                       
812   SHD009000000000000000000000091CT                                              ZZ UNKNOWN                                           
812   N1 01100000BT FEIT ELECTRIC COMPANY                                                                                                                              
812   N3 01300000ATTN PAT GRANADO                                       4901 GREGG RD                                          
812   N4 01400000PICO RIVERA                   CA90660                                                
812   CDD0220000024D                    2000000000092974                                                                                                                                                                                                                                                                                                                                                   
812   CDD0220000006D                    1000000000000921    00000000030ZZ                UCP200000000000000307INV200000000000000307                                                                                                                                                                                                                                                                        
812   LIN02300000                    SK806277                                          VPBPXN20/G8/                                                                                                                                                                                                                                                                                                                                                                                                                                                                                                                                                                                                                                                                                                                
812   CDD0220000006D                    2000000000000558    00000000006ZZ                UCP200000000000000093INV200000000000000093                                                                                                                                                                                                                                                                        
812   LIN02300000                    SK1001691867                                      VP7G121/2/CL                                                                                                                                                                                                                                                                                                                                                                                                                                                                                                                                                                                                                                                                                                                
812   00000000000                      CD               HDEPOT2                       0000307013121     000019342004060      000004060004060X X4064060604060                              P P                                        
812   BCD00200000201703220                     A 2000000001689343D20170221101057355                                   2017021538931292                  ST 5520                                                
812   N9 00400000VR 000265438                                                                                                                                                                                                                                                                       
812   N9 00400000VV WSRZGB                                                                                                                                                                                                                                                                          
812   N9 00400000RV 552060471                                                                                                                                                                                                                                                                       
812   N9 00400000DP 27                                                                                                                                                                                                                                                                              
812   N9 00400000FR 0870067781                                                                                                                                                                                                                                                                      
812   FOB00800000CC                                                                                    ZZZDEDESTINATION                                                                                                                                                       
812   SHD009000000000000000000001823CT                                              ZZ UNKNOWN                                           
812   N1 01100000BT FEIT ELECTRIC COMPANY                                                                                                                              
812   N3 01300000ATTN PAT GRANADO                                       4901 GREGG RD                                          
812   N4 01400000PICO RIVERA                   CA90660                                                
812   CDD0220000024D                    2000000001686145                                                                                                                                                                                                                                                                                                                                                   
812   CDD0220000006D                    2000000000000762    00000000006ZZ                UCP200000000000000127INV200000000000000127                                                                                                                                                                                                                                                                        
812   LIN02300000                    SK964924                                          VPBPQ100/G8                                                                                                                                                                                                                                                                                                                                                                                                                                                                                                                                                                                                                                                                                                                 
812   CDD0220000006D                    2000000000001602    00000000018ZZ                UCP200000000000000089INV200000000000000089                                                                                                                                                                                                                                                                        
812   LIN02300000                    SK127867                                          VPBPQ60/G9                                                                                                                                                                                                                                                                                                                                                                                                                                                                                                                                                                                                                                                                                                                  
812   CDD0220000006D                    2000000000000834    00000000006ZZ                UCP200000000000000139INV200000000000000139                                                                                                                                                                                                                                                                        
812   LIN02300000                    SK178040                                          VPBPQ75/G8                                                                                                                                                                                                                                                                                                                                                                                                                                                                                                                                                                                                                                                                                                                  
812   00000000000                      CD               HDEPOT2                       0000306983120     000019341004060      000004060004060X X4064060604060                              P P                                        
812   BCD0020000020170321086175810             O 2000000000019684D        0000000000                                                                    ST 8617                                                
812   N9 00400000VR 000265438                                                                                                                                                                                                                                                                       
812   N9 00400000RZ Not Required                                                                                                                                                                                                                                                                    
812   N9 00400000MR 000060371                                                                                                                                                                                                                                                                       
812   N9 00400000DP 27                                                                                                                                                                                                                                                                              
812   N9 00400000L1 12                                                                                                                                                                                                                                                                              
812   N9 00400000ZZ 05                                                                                                                                                                                                                                                                              
812   N9 00400000MB 000395610                                                                                                                                                                                                                                                                       
812   FOB00800000PC                                                                                                                                                                                                                                                           
812   SHD009000000000000000000000000CT                                                                                                   
812   N1 01100000BT FEIT ELECTRIC COMPANY                                                                                                                              
812   N3 01300000ATTN PAT GRANADO                                       4901 GREGG RD                                          
812   N4 01400000PICO RIVERA                   CA90660                                                
812   N1 01100000ST FEIT ELECTRIC CO                                                                                                                                   
812   N1 01100000SN PHOENIX RLC                                                                                                                                        
812   N3 013000007200 W BUCKEYE RD                                                                                             
812   N4 01400000PHOENIX                       AZ85043                                                
812   CDD02200000RMD                                        00000000001EA                UCP400000000000596781ICL400000000000596781CE 1X4 LED EDGE-LIT, WHITE TRIM                                                                                                                                                                                                                                         
812   LIN02300000                    SK1001375544                                      VP74031/HD                                        PO17760374                                                                                                                                                                                                                                                                                                                                                                                                                                                                                                                                                                                                                                                                
812   CDD02200000RMD                                        00000000001ZZ                UCP400000000000612817ICL400000000000612817                                                                                                                                                                                                                                                                        
812   LIN02300000                    SK1001375544                                      VP74031/HD                                        PO17791079                                                                                                                                                                                                                                                                                                                                                                                                                                                                                                                                                                                                                                                                
812   CDD02200000RMD                                        00000000001EA                UCP400000000000623569ICL400000000000623569CE 2X2 LED EDGE-LIT(2IN1), WHITE                                                                                                                                                                                                                                        
812   LIN02300000                    SK1001375582                                      VP74032/HD                                        PO17779683                                                                                                                                                                                                                                                                                                                                                                                                                                                                                                                                                                                                                                                                
812   CDD02200000RMD                                        00000000001EA                UCP400000000000135211ICL400000000000135211CE 4FT  LED SHOP LIGHT W/ PULL CHAIN                                                                                                                                                                                                                                    
812   LIN02300000                    SK1001698107                                      VP74104/HD                                        PO17757064                                                                                                                                                                                                                                                                                                                                                                                                                                                                                                                                                                                                                                                                
812   00000000000                      CD               HDEPOT2                       0000306983120     000019340004060      000004060004060X X4064060604060                              P P                                        
812   BCD0020000020170321086175809             O 2000000000038906D        0000000000                                                                    ST 8617                                                
812   N9 00400000VR 000265438                                                                                                                                                                                                                                                                       
812   N9 00400000RZ Not Required                                                                                                                                                                                                                                                                    
812   N9 00400000MR 000060371                                                                                                                                                                                                                                                                       
812   N9 00400000DP 27                                                                                                                                                                                                                                                                              
812   N9 00400000L1 01                                                                                                                                                                                                                                                                              
812   N9 00400000ZZ 05                                                                                                                                                                                                                                                                              
812   N9 00400000MB 000395610                                                                                                                                                                                                                                                                       
812   FOB00800000PC                                                                                                                                                                                                                                                           
812   SHD009000000000000000000000000CT                                                                                                   
812   N1 01100000BT FEIT ELECTRIC COMPANY                                                                                                                              
812   N3 01300000ATTN PAT GRANADO                                       4901 GREGG RD                                          
812   N4 01400000PICO RIVERA                   CA90660                                                
812   N1 01100000ST FEIT ELECTRIC CO                                                                                                                                   
812   N1 01100000SN PHOENIX RLC                                                                                                                                        
812   N3 013000007200 W BUCKEYE RD                                                                                             
812   N4 01400000PHOENIX                       AZ85043                                                
812   CDD02200000RMD                                        00000000001EA                UCP400000000000279348ICL400000000000279348LED VANITY LIGHT FIXTURE DNI                                                                                                                                                                                                                                            
812   LIN02300000                    SK1000488936                                      VP73958/HD                                        PO17734374                                                                                                                                                                                                                                                                                                                                                                                                                                                                                                                                                                                                                                                                
812   CDD02200000RMD                                        00000000001EA                UCP400000000000187951ICL400000000000187951CE 11 IN ROUND LED EDGE-LIT, WHITE                                                                                                                                                                                                                                      
812   LIN02300000                    SK1001375535                                      VP74047/HD                                        PO17772598                                                                                                                                                                                                                                                                                                                                                                                                                                                                                                                                                                                                                                                                
812   CDD02200000RMD                                        00000000001EA                UCP400000000000296115ICL400000000000296115CE 15 IN ROUND LED EDGE-LIT, WHITE                                                                                                                                                                                                                                      
812   LIN02300000                    SK1001375539                                      VP74048/HD                                        PO17726803                                                                                                                                                                                                                                                                                                                                                                                                                                                                                                                                                                                                                                                                
812   CDD02200000RMD                                        00000000001EA                UCP400000000000596781ICL400000000000596781CE 1X4 LED EDGE-LIT, WHITE TRIM                                                                                                                                                                                                                                         
812   LIN02300000                    SK1001375544                                      VP74031/HD                                        PO17788784                                                                                                                                                                                                                                                                                                                                                                                                                                                                                                                                                                                                                                                                
812   CDD02200000RMD                                        00000000002ZZ                UCP300000000000060528ICL300000000000121056                                                                                                                                                                                                                                                                        
812   LIN02300000                    SK1001375544                                      VP74031/HD                                        PO17733144                                                                                                                                                                                                                                                                                                                                                                                                                                                                                                                                                                                                                                                                
812   CDD02200000RMD                                        00000000001EA                UCP400000000000370288ICL400000000000370288CE 1X2 LED EDGE-LIT, WHITE TRIM                                                                                                                                                                                                                                         
812   LIN02300000                    SK1001375577                                      VP74030/HD                                        PO17727877                                                                                                                                                                                                                                                                                                                                                                                                                                                                                                                                                                                                                                                                
812   CDD02200000RMD                                        00000000005EA                UCP400000000000135817ICL400000000000679085CE 4FT  LED SHOP LIGHT W/ PULL CHAIN                                                                                                                                                                                                                                    
812   LIN02300000                    SK1001698107                                      VP74104/HD                                        PO17742959                                                                                                                                                                                                                                                                                                                                                                                                                                                                                                                                                                                                                                                                
812   CDD02200000RMD                                        00000000002ZZ                UCP400000000000135211ICL400000000000270422                                                                                                                                                                                                                                                                        
812   LIN02300000                    SK1001698107                                      VP74104/HD                                        PO17732856                                                                                                                                                                                                                                                                                                                                                                                                                                                                                                                                                                                                                                                                
812   00000000000                      CD               HDEPOT2                       0000306983120     000019339004060      000004060004060X X4064060604060                              P P                                        
812   BCD0020000020170321086164736             O 2000000000080496D        0000000000                                                                    ST 8616                                                
812   N9 00400000VR 000265438                                                                                                                                                                                                                                                                       
812   N9 00400000RZ NA                                                                                                                                                                                                                                                                              
812   N9 00400000MR 060082092                                                                                                                                                                                                                                                                       
812   N9 00400000DP 27                                                                                                                                                                                                                                                                              
812   N9 00400000L1 14                                                                                                                                                                                                                                                                              
812   N9 00400000ZZ 05                                                                                                                                                                                                                                                                              
812   N9 00400000MB 000196996                                                                                                                                                                                                                                                                       
812   FOB00800000PC                                                                                                                                                                                                                                                           
812   SHD009000000000000000000000000CT                                                                                                   
812   N1 01100000BT FEIT ELECTRIC COMPANY                                                                                                                              
812   N3 01300000ATTN PAT GRANADO                                       4901 GREGG RD                                          
812   N4 01400000PICO RIVERA                   CA90660                                                
812   N1 01100000ST S/O FEIT ELECTRIC                                                                                                                                  
812   N1 01100000SN ATLANTA RLC                                                                                                                                        
812   N3 01300000180 WESTRIDGE PKWY                                     SUITE 300                                              
812   N4 01400000MCDONOUGH                     GA30253                                                
812   CDD02200000RMD                                        00000000016CA                UCP200000000000005031ICL20000000000008049665W EQUIVALENT SOFT WHITE R20 DIMMAB                                                                                                                                                                                                                                    
812   LIN02300000                    SK1002084552                                      VPLEDR56827MED2/4                                 PO81426621                                                                                                                                                                                                                                                                                                                                                                                                                                                                                                                                                                                                                                                                
812   00000000000                      CD               HDEPOT2                       0000306983120     000019338004060      000004060004060X X4064060604060                              P P                                        
812   BCD0020000020170321086154403             O 2000000000017147D        0000000000                                                                    ST 8615                                                
812   N9 00400000VR 000265438                                                                                                                                                                                                                                                                       
812   N9 00400000RZ NA                                                                                                                                                                                                                                                                              
812   N9 00400000MR 060082092                                                                                                                                                                                                                                                                       
812   N9 00400000DP 27                                                                                                                                                                                                                                                                              
812   N9 00400000L1 15                                                                                                                                                                                                                                                                              
812   N9 00400000ZZ 05                                                                                                                                                                                                                                                                              
812   N9 00400000MB 000226150                                                                                                                                                                                                                                                                       
812   FOB00800000PC                                                                                                                                                                                                                                                           
812   SHD009000000000000000000000000CT                                                                                                   
812   N1 01100000BT FEIT ELECTRIC COMPANY                                                                                                                              
812   N3 01300000ATTN PAT GRANADO                                       4901 GREGG RD                                          
812   N4 01400000PICO RIVERA                   CA90660                                                
812   N1 01100000ST S/O FEIT ELECTRIC                                                                                                                                  
812   N1 01100000SN INDIANAPOLIS RLC                                                                                                                                   
812   N3 013000001390 SOUTH PERRY ROAD                                                                                         
812   N4 01400000PLAINFIELD                    IN46168                                                
812   CDD02200000RMD                                        00000000001CA                UCP200000000000017147ICL20000000000001714740W EQUIVALENT DAYLIGHT CA10 DIMMABL                                                                                                                                                                                                                                    
812   LIN02300000                    SK1002333259                                      VPBPCFC40850LD224                                 PO87434551                                                                                                                                                                                                                                                                                                                                                                                                                                                                                                                                                                                                                                                                
812   00000000000                      CD               HDEPOT2                       0000306983120     000019337004060      000004060004060X X4064060604060                              P P                                        
812   BCD0020000020170321086154112             O 2000000000005917D        0000000000                                                                    ST 8615                                                
812   N9 00400000VR 000265438                                                                                                                                                                                                                                                                       
812   N9 00400000RZ NA                                                                                                                                                                                                                                                                              
812   N9 00400000MR 060082092                                                                                                                                                                                                                                                                       
812   N9 00400000DP 27                                                                                                                                                                                                                                                                              
812   N9 00400000L1 14                                                                                                                                                                                                                                                                              
812   N9 00400000ZZ 05                                                                                                                                                                                                                                                                              
812   N9 00400000MB 000226142                                                                                                                                                                                                                                                                       
812   FOB00800000PC                                                                                                                                                                                                                                                           
812   SHD009000000000000000000000000CT                                                                                                   
812   N1 01100000BT FEIT ELECTRIC COMPANY                                                                                                                              
812   N3 01300000ATTN PAT GRANADO                                       4901 GREGG RD                                          
812   N4 01400000PICO RIVERA                   CA90660                                                
812   N1 01100000ST S/O FEIT ELECTRIC                                                                                                                                  
812   N1 01100000SN INDIANAPOLIS RLC                                                                                                                                   
812   N3 013000001390 SOUTH PERRY ROAD                                                                                         
812   N4 01400000PLAINFIELD                    IN46168                                                
812   CDD02200000RMD                                        00000000001CA                UCP200000000000005917ICL20000000000000591740W EQUIVALENT DAYLIGHT G25 DIMMABLE                                                                                                                                                                                                                                    
812   LIN02300000                    SK1002315932                                      VPBPG2540F850LD12                                 PO2802146                                                                                                                                                                                                                                                                                                                                                                                                                                                                                                                                                                                                                                                                 
812   00000000000                      CD               HDEPOT2                       0000306983120     000019336004060      000004060004060X X4064060604060                              P P                                        
812   BCD0020000020170320069672016             O 2000000000001106D        0000000000                                                                    ST 6967                                                
812   N9 00400000VR 000265438                                                                                                                                                                                                                                                                       
812   N9 00400000DP 27                                                                                                                                                                                                                                                                              
812   N9 00400000L1 01                                                                                                                                                                                                                                                                              
812   N9 00400000ZZ 05                                                                                                                                                                                                                                                                              
812   N9 00400000MB 0000000000                                                                                                                                                                                                                                                                      
812   SHD009000000000000000000000000CT                                                                                                   
812   N1 01100000BT FEIT ELECTRIC COMPANY                                                                                                                              
812   N3 01300000ATTN PAT GRANADO                                       4901 GREGG RD                                          
812   N4 01400000PICO RIVERA                   CA90660                                                
812   N1 01100000SN SEASIDE                                                                                                                                            
812   N3 013000001590 CANYON DEL REY BLVD                                                                                      
812   N4 01400000SEASIDE                       CA93955                                                
812   CDD02200000RMD                                        00000000001EA                UCP400000000000110649ICL400000000000110649ES 14W DAYLIGHT SPIRAL BULB 12PK                                                                                                                                                                                                                                        
812   LIN02300000                    SK323430                                          VPESL13T/5K/12ESM                                                                                                                                                                                                                                                                                                                                                                                                                                                                                                                                                                                                                                                                                                           
812   00000000000                      CD               HDEPOT2                       0000306983120     000019335004060      000004060004060X X4064060604060                              P P                                        
812   BCD0020000020170321047114752             O 2000000000000524D        0000000000                                                                    ST 4711                                                
812   N9 00400000VR 000265438                                                                                                                                                                                                                                                                       
812   N9 00400000DP 27                                                                                                                                                                                                                                                                              
812   N9 00400000L1 01                                                                                                                                                                                                                                                                              
812   N9 00400000ZZ 05                                                                                                                                                                                                                                                                              
812   N9 00400000MB 0000000000                                                                                                                                                                                                                                                                      
812   SHD009000000000000000000000000CT                                                                                                   
812   N1 01100000BT FEIT ELECTRIC COMPANY                                                                                                                              
812   N3 01300000ATTN PAT GRANADO                                       4901 GREGG RD                                          
812   N4 01400000PICO RIVERA                   CA90660                                                
812   N1 01100000SN BELLEVUE, WA                                                                                                                                       
812   N3 01300000325 120TH AVE NE                                                                                              
812   N4 01400000BELLEVUE                      WA98005                                                
812   CDD02200000RMD                                        00000000001EA                UCP300000000000005235ICL300000000000005235ES 23W DAYLIGHT SPIRAL CFL BULB 4PK                                                                                                                                                                                                                                     
812   LIN02300000                    SK384314                                          VPESL23TM/5K/4ESM                                                                                                                                                                                                                                                                                                                                                                                                                                                                                                                                                                                                                                                                                                           
812   00000000000                      CD               HDEPOT2                       0000306983120     000019334004060      000004060004060X X4064060604060                              P P                                        
812   BCD0020000020170321017016324             O 2000000000002724D        0000000000                                                                    ST 1701                                                
812   N9 00400000VR 000265438                                                                                                                                                                                                                                                                       
812   N9 00400000DP 27                                                                                                                                                                                                                                                                              
812   N9 00400000L1 01                                                                                                                                                                                                                                                                              
812   N9 00400000ZZ 05                                                                                                                                                                                                                                                                              
812   N9 00400000MB 0000000000                                                                                                                                                                                                                                                                      
812   SHD009000000000000000000000000CT                                                                                                   
812   N1 01100000BT FEIT ELECTRIC COMPANY                                                                                                                              
812   N3 01300000ATTN PAT GRANADO                                       4901 GREGG RD                                          
812   N4 01400000PICO RIVERA                   CA90660                                                
812   N1 01100000SN HONOLULU                                                                                                                                           
812   N3 01300000421 ALAKAWA ST                                                                                                
812   N4 01400000HONOLULU                      HI96817                                                
812   CDD02200000RMD                                        00000000001EA                UCP400000000000272386ICL400000000000272386CE 1X1 LED EDGE-LIT, WHITE TRIM                                                                                                                                                                                                                                         
812   LIN02300000                    SK1001375553                                      VP74029/HD                                                                                                                                                                                                                                                                                                                                                                                                                                                                                                                                                                                                                                                                                                                  
812   00000000000                      CD               HDEPOT2                       0000306983120     000019333004060      000004060004060X X4064060604060                              P P                                        
812   BCD0020000020170321006517959             O 2000000000000512D        0000000000                                                                    ST 651                                                 
812   N9 00400000VR 000265438                                                                                                                                                                                                                                                                       
812   N9 00400000DP 27                                                                                                                                                                                                                                                                              
812   N9 00400000L1 01                                                                                                                                                                                                                                                                              
812   N9 00400000ZZ 05                                                                                                                                                                                                                                                                              
812   N9 00400000MB 0000000000                                                                                                                                                                                                                                                                      
812   SHD009000000000000000000000000CT                                                                                                   
812   N1 01100000BT FEIT ELECTRIC COMPANY                                                                                                                              
812   N3 01300000ATTN PAT GRANADO                                       4901 GREGG RD                                          
812   N4 01400000PICO RIVERA                   CA90660                                                
812   N1 01100000SN FLORIN RD                                                                                                                                          
812   N3 013000004641 FLORIN RD                                                                                                
812   N4 01400000SACRAMENTO                    CA95823                                                
812   CDD02200000RMD                                        00000000001EA                UCP400000000000051191ICL400000000000051191ES 23W SOFT WHITE SPIRAL BULB 4PK                                                                                                                                                                                                                                       
812   LIN02300000                    SK475110                                          VPESL23TM/4/ESM                                                                                                                                                                                                                                                                                                                                                                                                                                                                                                                                                                                                                                                                                                             
812   00000000000                      CD               HDEPOT2                       0000306983120     000019332004060      000004060004060X X4064060604060                              P P                                        
812   BCD0020000020170321006034694             O 2000000000003327D        0000000000                                                                    ST 603                                                 
812   N9 00400000VR 000265438                                                                                                                                                                                                                                                                       
812   N9 00400000DP 27                                                                                                                                                                                                                                                                              
812   N9 00400000L1 01                                                                                                                                                                                                                                                                              
812   N9 00400000ZZ 05                                                                                                                                                                                                                                                                              
812   N9 00400000MB 0000000000                                                                                                                                                                                                                                                                      
812   SHD009000000000000000000000000CT                                                                                                   
812   N1 01100000BT FEIT ELECTRIC COMPANY                                                                                                                              
812   N3 01300000ATTN PAT GRANADO                                       4901 GREGG RD                                          
812   N4 01400000PICO RIVERA                   CA90660                                                
812   N1 01100000SN TUSTIN                                                                                                                                             
812   N3 013000002782 EL CAMINO REAL                                                                                           
812   N4 01400000TUSTIN                        CA92782                                                
812   CDD02200000RMD                                        00000000001CA                UCP200000000000003327ICL20000000000000332765-WATT INCANDESCENT BR30 FLOOD LIGH                                                                                                                                                                                                                                    
812   LIN02300000                    SK1000515103                                      VP65BR30/FL/MP/48                                 PO54491432                                                                                                                                                                                                                                                                                                                                                                                                                                                                                                                                                                                                                                                                
