820   00000000000                      RA               HD820                         000501625500093   0094     004060      000004060004060X X4064060604060                              P P                                        
820   BPR00200000I 2000000000000025409CACHPBC                                                                                                                                                                                                 
820   TRN004000001 2000275088                                                                                                    
820   CUR00500000BY USD                                                                                                                   
820   REF00600000ZZ 2000275088                                                                                                                                                                                                                                                                                       
820   DTM0070000002020180514                                                
820   N1 00800000PE FEIT ELECTRIC COMPANY                                                                                                                              
820   REF01200000VR 265438                                                                                                                                                                                                                                                                                           
820   N1 00800000PR HOME DEPOT PUERTO RICO, INC.                                                                                                                       
820   ENT016000000000001                                                                                                                                                                                                                               
820   RMR04600000OS 64019327                                            200000000000000013w200000000000000013w0000000000000000000CM0000000000000000000
820   DTM0490000099920180504                                                
820   RMR04600000OS 64025962                                            200000000000000073u200000000000000073u0000000000000000000CM0000000000000000000
820   DTM0490000099920180503                                                
820   RMR04600000OS 64025972                                            200000000000000025w200000000000000025w0000000000000000000CM0000000000000000000
820   DTM0490000099920180503                                                
820   RMR04600000OS 64025973                                            200000000000000025w200000000000000025w0000000000000000000CM0000000000000000000
820   DTM0490000099920180503                                                
820   RMR04600000OS 64035460                                            200000000000000027x200000000000000027x0000000000000000000CM0000000000000000000
820   DTM0490000099920180507                                                
820   RMR04600000OS 64026045                                            200000000000000028x200000000000000028x0000000000000000000CM0000000000000000000
820   DTM0490000099920180505                                                
820   RMR04600000OS 64080648                                            200000000000000038y200000000000000038y0000000000000000000CM0000000000000000000
820   DTM0490000099920180507                                                
820   RMR04600000OS 64050941                                            200000000000000053t200000000000000053t0000000000000000000CM0000000000000000000
820   DTM0490000099920180507                                                
820   RMR04600000OS 64123959                                            200000000000000055u200000000000000055u0000000000000000000CM0000000000000000000
820   DTM0490000099920180507                                                
820   RMR04600000OS 64025960                                            200000000000000069x200000000000000069x0000000000000000000CM0000000000000000000
820   DTM0490000099920180503                                                
820   RMR04600000OS 64026132                                            200000000000000026q200000000000000026q0000000000000000000CM0000000000000000000
820   DTM0490000099920180507                                                
820   RMR04600000OS 64073447                                            200000000000000119y200000000000000119y0000000000000000000CM0000000000000000000
820   DTM0490000099920180503                                                
820   RMR04600000OS 64080701                                            200000000000000008v200000000000000008v0000000000000000000CM0000000000000000000
820   DTM0490000099920180507                                                
820   RMR04600000IV 101265822                                           200000000000003108320000000000000313972000000000000000314PT0000000000000000000
820   REF04800000PO 0009970039                                                                                                                                                                                                                                                                                       
820   DTM0490000099920180306                                                
