820   00000000000                      RA               HD820                         000500850500048   0049     004060      000004060004060X X4064060604060                              P P                                        
820   BPR00200000I 2000000000000025176CACHPBC                                                                                                                                                                                                 
820   TRN004000001 2001517142                                                                                                    
820   CUR00500000BY USD                                                                                                                   
820   REF00600000ZZ 2001517142                                                                                                                                                                                                                                                                                       
820   DTM0070000002020180309                                                
820   N1 00800000PE FEIT ELECTRIC CO                                                                                                                                   
820   REF01200000VR 71206105                                                                                                                                                                                                                                                                                         
820   N1 00800000PR HOME DEPOT U.S.A., INC.                                                                                                                            
820   ENT016000000000001                                                                                                                                                                                                                               
820   RMR04600000IV 101221549                                           200000000000002517610000000000000025432000000000000000254PT0000000000000000000
820   REF04800000PO 9012495290                                                                                                                                                                                                                                                                                       
820   DTM0490000099920171212                                                
