812   00000000000                      CD               HDCAN                         000503309500355   0334     004060      000004060004060X X4064060604060                              P P                                        
812   BCD00200000201610030                     A 2000000000002585D20160725100949931                                   2016071840080241                  ST 7279                                                
812   N9 00400000VR 27000687                                                                                                                                                                                                                                                                        
812   FOB00800000CC                                                                                    ZZZDEDESTINATION                                                                                                                                                       
812   SHD009000000000000000000000414EA                                              ZZ FEIT ELECTRIC                                     
812   N1 01100000SN HOME DEPOT CANADA                                                                                                                                  
812   N3 01300000PO BOX 900, STATION D                                                                                         
812   N4 01400000SCARBOROUGH                   ONM1R 5H8        CA                                    
812   N1 01100000BT FEIT ELECTRIC                                                                                                                                      
812   N3 013000004901 GREGG ROAD                                                                                               
812   N4 01400000PICO RIVERA                   CA90660          US                                    
812   CDD0220000006D                    2000000000002585                                 UCP200000000000000431INV200000000000000431                                                                                                                                                                                                                                                                        
812   LIN02300000                    SK834108                                          VPG9/LED/CAN                                                                                                                                                                                                                                                                                                                                                                                                                                                                                                                                                                                                                                                                                                                
812   00000000000                      CD               HDCAN                         000503311500357   0336     004060      000004060004060X X4064060604060                              P P                                        
812   BCD00200000201610030                     A 2000000000002585D20160718100945553                                   2016071140077063                  ST 7279                                                
812   N9 00400000VR 27000687                                                                                                                                                                                                                                                                        
812   FOB00800000CC                                                                                    ZZZDEDESTINATION                                                                                                                                                       
812   SHD009000000000000000000000390EA                                              ZZ FEIT ELECTRIC                                     
812   N1 01100000SN HOME DEPOT CANADA                                                                                                                                  
812   N3 01300000PO BOX 900, STATION D                                                                                         
812   N4 01400000SCARBOROUGH                   ONM1R 5H8        CA                                    
812   N1 01100000BT FEIT ELECTRIC                                                                                                                                      
812   N3 013000004901 GREGG ROAD                                                                                               
812   N4 01400000PICO RIVERA                   CA90660          US                                    
812   CDD0220000006D                    2000000000002585                                 UCP200000000000000431INV200000000000000431                                                                                                                                                                                                                                                                        
812   LIN02300000                    SK834108                                          VPG9/LED/CAN                                                                                                                                                                                                                                                                                                                                                                                                                                                                                                                                                                                                                                                                                                                
812   00000000000                      CD               HDCAN                         000503308500354   0333     004060      000004060004060X X4064060604060                              P P                                        
812   BCD00200000201610030                     A 2000000000059576D20160725100949905                                   2016071840080236                  ST 7279                                                
812   N9 00400000VR 27000687                                                                                                                                                                                                                                                                        
812   FOB00800000CC                                                                                    ZZZDEDESTINATION                                                                                                                                                       
812   SHD009000000000000000000000080EA                                              ZZ FEIT ELECTRIC                                     
812   N1 01100000SN HOME DEPOT CANADA                                                                                                                                  
812   N3 01300000PO BOX 900, STATION D                                                                                         
812   N4 01400000SCARBOROUGH                   ONM1R 5H8        CA                                    
812   N1 01100000BT FEIT ELECTRIC                                                                                                                                      
812   N3 013000004901 GREGG ROAD                                                                                               
812   N4 01400000PICO RIVERA                   CA90660          US                                    
812   CDD0220000006D                    2000000000059576                                 UCP200000000000002128INV200000000000002128                                                                                                                                                                                                                                                                        
812   LIN02300000                    SK832690                                          VP74050                                                                                                                                                                                                                                                                                                                                                                                                                                                                                                                                                                                                                                                                                                                     
812   00000000000                      CD               HDCAN                         000503310500356   0335     004060      000004060004060X X4064060604060                              P P                                        
812   BCD00200000201610030                     A 2000000000002585D20160713100942555                                   2016070440076443                  ST 7279                                                
812   N9 00400000VR 27000687                                                                                                                                                                                                                                                                        
812   FOB00800000CC                                                                                    ZZZDEDESTINATION                                                                                                                                                       
812   SHD009000000000000000000000246EA                                              ZZ FEIT ELECTRIC                                     
812   N1 01100000SN HOME DEPOT CANADA                                                                                                                                  
812   N3 01300000PO BOX 900, STATION D                                                                                         
812   N4 01400000SCARBOROUGH                   ONM1R 5H8        CA                                    
812   N1 01100000BT FEIT ELECTRIC                                                                                                                                      
812   N3 013000004901 GREGG ROAD                                                                                               
812   N4 01400000PICO RIVERA                   CA90660          US                                    
812   CDD0220000006D                    2000000000002585                                 UCP200000000000000431INV200000000000000431                                                                                                                                                                                                                                                                        
812   LIN02300000                    SK834108                                          VPG9/LED/CAN                                                                                                                                                                                                                                                                                                                                                                                                                                                                                                                                                                                                                                                                                                                
